(module PT61017PEL (layer F.Cu) (tedit 5E6EA8FB)
  (descr https://www.bourns.com/docs/Product-Datasheets/PT61017PEL.pdf)
  (tags "Transformer Ethernet Single Center-Tap")
  (attr smd)
  (fp_text reference REF** (at 0.508 -7.7216) (layer F.SilkS)
    (effects (font (size 1 1) (thickness 0.15)))
  )
  (fp_text value PT61017PEL (at 0.254 8.001) (layer F.Fab)
    (effects (font (size 1 1) (thickness 0.15)))
  )
  (fp_text user %R (at 0 0) (layer F.Fab)
    (effects (font (size 1 1) (thickness 0.15)))
  )
  (fp_line (start 3.7 -5.1) (end 3.7 -6.65) (layer F.CrtYd) (width 0.05))
  (fp_line (start 5.5 -5.1) (end 3.7 -5.1) (layer F.CrtYd) (width 0.05))
  (fp_line (start 5.5 5.1) (end 5.5 -5.1) (layer F.CrtYd) (width 0.05))
  (fp_line (start 3.7 5.1) (end 5.5 5.1) (layer F.CrtYd) (width 0.05))
  (fp_line (start 3.7 6.65) (end 3.7 5.1) (layer F.CrtYd) (width 0.05))
  (fp_line (start -3.7 6.65) (end 3.7 6.65) (layer F.CrtYd) (width 0.05))
  (fp_line (start -3.7 5.1) (end -3.7 6.65) (layer F.CrtYd) (width 0.05))
  (fp_line (start -5.5 5.1) (end -3.7 5.1) (layer F.CrtYd) (width 0.05))
  (fp_line (start -3.7 -6.65) (end 3.7 -6.65) (layer F.CrtYd) (width 0.05))
  (fp_line (start -3.7 -5.1) (end -3.7 -6.65) (layer F.CrtYd) (width 0.05))
  (fp_line (start -3.7 -5.1) (end -5.5 -5.1) (layer F.CrtYd) (width 0.05))
  (fp_line (start -5.5 -5.1) (end -5.5 5.1) (layer F.CrtYd) (width 0.05))
  (fp_line (start 3.6 6.55) (end 3.6 5.025) (layer F.SilkS) (width 0.12))
  (fp_line (start -3.6 6.55) (end 3.6 6.55) (layer F.SilkS) (width 0.12))
  (fp_line (start -3.6 5.025) (end -3.6 6.55) (layer F.SilkS) (width 0.12))
  (fp_line (start 3.6 -6.55) (end 3.6 -5.025) (layer F.SilkS) (width 0.12))
  (fp_line (start -3.6 -6.55) (end 3.6 -6.55) (layer F.SilkS) (width 0.12))
  (fp_line (start -3.6 -5.025) (end -3.6 -6.55) (layer F.SilkS) (width 0.12))
  (fp_line (start -5.2 -5.025) (end -3.6 -5.025) (layer F.SilkS) (width 0.12))
  (fp_line (start -2.45 -6.4) (end -3.45 -5.4) (layer F.Fab) (width 0.1))
  (fp_line (start 3.45 -6.4) (end -2.45 -6.4) (layer F.Fab) (width 0.1))
  (fp_line (start 3.45 6.4) (end 3.45 -6.4) (layer F.Fab) (width 0.1))
  (fp_line (start -3.45 6.4) (end 3.45 6.4) (layer F.Fab) (width 0.1))
  (fp_line (start -3.45 -5.4) (end -3.45 6.4) (layer F.Fab) (width 0.1))
  (pad 12 smd rect (at 4.4 0.635) (size 1.7 0.76) (layers F.Cu F.Paste F.Mask))
  (pad 16 smd rect (at 4.4 -4.445) (size 1.7 0.76) (layers F.Cu F.Paste F.Mask))
  (pad 13 smd rect (at 4.4 -0.635) (size 1.7 0.76) (layers F.Cu F.Paste F.Mask))
  (pad 10 smd rect (at 4.4 3.175) (size 1.7 0.76) (layers F.Cu F.Paste F.Mask))
  (pad 15 smd rect (at 4.4 -3.175) (size 1.7 0.76) (layers F.Cu F.Paste F.Mask))
  (pad 9 smd rect (at 4.4 4.445) (size 1.7 0.76) (layers F.Cu F.Paste F.Mask))
  (pad 11 smd rect (at 4.4 1.905) (size 1.7 0.76) (layers F.Cu F.Paste F.Mask))
  (pad 14 smd rect (at 4.4 -1.905) (size 1.7 0.76) (layers F.Cu F.Paste F.Mask))
  (pad 8 smd rect (at -4.4 4.445) (size 1.7 0.76) (layers F.Cu F.Paste F.Mask))
  (pad 6 smd rect (at -4.4 1.905) (size 1.7 0.76) (layers F.Cu F.Paste F.Mask))
  (pad 5 smd rect (at -4.4 0.635) (size 1.7 0.76) (layers F.Cu F.Paste F.Mask))
  (pad 7 smd rect (at -4.4 3.175) (size 1.7 0.76) (layers F.Cu F.Paste F.Mask))
  (pad 4 smd rect (at -4.4 -0.635) (size 1.7 0.76) (layers F.Cu F.Paste F.Mask))
  (pad 3 smd rect (at -4.4 -1.905) (size 1.7 0.76) (layers F.Cu F.Paste F.Mask))
  (pad 2 smd rect (at -4.4 -3.175) (size 1.7 0.76) (layers F.Cu F.Paste F.Mask))
  (pad 1 smd rect (at -4.4 -4.445) (size 1.7 0.76) (layers F.Cu F.Paste F.Mask))
  (model :custom:SOIC_PT61017PEL.step
    (at (xyz 0 0 0))
    (scale (xyz 1 1 1))
    (rotate (xyz 0 0 0))
  )
)
