(module SOP63P602X175-16N (layer F.Cu) (tedit 5D9A6BF3)
  (attr smd)
  (fp_text reference REF** (at 0.4064 -3.3782) (layer F.SilkS)
    (effects (font (size 1 1) (thickness 0.15)))
  )
  (fp_text value SOP63P602X175-16N (at 0.2032 3.6068) (layer F.Fab)
    (effects (font (size 1 1) (thickness 0.15)))
  )
  (fp_text user %R (at 0 0) (layer F.Fab)
    (effects (font (size 0.8 0.8) (thickness 0.15)))
  )
  (fp_line (start -2.0066 -2.0828) (end -2.0066 -2.3622) (layer Eco2.User) (width 0.1))
  (fp_line (start -2.0066 -2.3622) (end -3.0988 -2.3622) (layer Eco2.User) (width 0.1))
  (fp_line (start -3.0988 -2.3622) (end -3.0988 -2.0828) (layer Eco2.User) (width 0.1))
  (fp_line (start -3.0988 -2.0828) (end -2.0066 -2.0828) (layer Eco2.User) (width 0.1))
  (fp_line (start -2.0066 -1.4478) (end -2.0066 -1.7272) (layer Eco2.User) (width 0.1))
  (fp_line (start -2.0066 -1.7272) (end -3.0988 -1.7272) (layer Eco2.User) (width 0.1))
  (fp_line (start -3.0988 -1.7272) (end -3.0988 -1.4478) (layer Eco2.User) (width 0.1))
  (fp_line (start -3.0988 -1.4478) (end -2.0066 -1.4478) (layer Eco2.User) (width 0.1))
  (fp_line (start -2.0066 -0.8128) (end -2.0066 -1.0922) (layer Eco2.User) (width 0.1))
  (fp_line (start -2.0066 -1.0922) (end -3.0988 -1.0922) (layer Eco2.User) (width 0.1))
  (fp_line (start -3.0988 -1.0922) (end -3.0988 -0.8128) (layer Eco2.User) (width 0.1))
  (fp_line (start -3.0988 -0.8128) (end -2.0066 -0.8128) (layer Eco2.User) (width 0.1))
  (fp_line (start -2.0066 -0.1778) (end -2.0066 -0.4572) (layer Eco2.User) (width 0.1))
  (fp_line (start -2.0066 -0.4572) (end -3.0988 -0.4572) (layer Eco2.User) (width 0.1))
  (fp_line (start -3.0988 -0.4572) (end -3.0988 -0.1778) (layer Eco2.User) (width 0.1))
  (fp_line (start -3.0988 -0.1778) (end -2.0066 -0.1778) (layer Eco2.User) (width 0.1))
  (fp_line (start -2.0066 0.4572) (end -2.0066 0.1778) (layer Eco2.User) (width 0.1))
  (fp_line (start -2.0066 0.1778) (end -3.0988 0.1778) (layer Eco2.User) (width 0.1))
  (fp_line (start -3.0988 0.1778) (end -3.0988 0.4572) (layer Eco2.User) (width 0.1))
  (fp_line (start -3.0988 0.4572) (end -2.0066 0.4572) (layer Eco2.User) (width 0.1))
  (fp_line (start -2.0066 1.0922) (end -2.0066 0.8128) (layer Eco2.User) (width 0.1))
  (fp_line (start -2.0066 0.8128) (end -3.0988 0.8128) (layer Eco2.User) (width 0.1))
  (fp_line (start -3.0988 0.8128) (end -3.0988 1.0922) (layer Eco2.User) (width 0.1))
  (fp_line (start -3.0988 1.0922) (end -2.0066 1.0922) (layer Eco2.User) (width 0.1))
  (fp_line (start -2.0066 1.7272) (end -2.0066 1.4478) (layer Eco2.User) (width 0.1))
  (fp_line (start -2.0066 1.4478) (end -3.0988 1.4478) (layer Eco2.User) (width 0.1))
  (fp_line (start -3.0988 1.4478) (end -3.0988 1.7272) (layer Eco2.User) (width 0.1))
  (fp_line (start -3.0988 1.7272) (end -2.0066 1.7272) (layer Eco2.User) (width 0.1))
  (fp_line (start -2.0066 2.3622) (end -2.0066 2.0828) (layer Eco2.User) (width 0.1))
  (fp_line (start -2.0066 2.0828) (end -3.0988 2.0828) (layer Eco2.User) (width 0.1))
  (fp_line (start -3.0988 2.0828) (end -3.0988 2.3622) (layer Eco2.User) (width 0.1))
  (fp_line (start -3.0988 2.3622) (end -2.0066 2.3622) (layer Eco2.User) (width 0.1))
  (fp_line (start 2.0066 2.0828) (end 2.0066 2.3622) (layer Eco2.User) (width 0.1))
  (fp_line (start 2.0066 2.3622) (end 3.0988 2.3622) (layer Eco2.User) (width 0.1))
  (fp_line (start 3.0988 2.3622) (end 3.0988 2.0828) (layer Eco2.User) (width 0.1))
  (fp_line (start 3.0988 2.0828) (end 2.0066 2.0828) (layer Eco2.User) (width 0.1))
  (fp_line (start 2.0066 1.4478) (end 2.0066 1.7272) (layer Eco2.User) (width 0.1))
  (fp_line (start 2.0066 1.7272) (end 3.0988 1.7272) (layer Eco2.User) (width 0.1))
  (fp_line (start 3.0988 1.7272) (end 3.0988 1.4478) (layer Eco2.User) (width 0.1))
  (fp_line (start 3.0988 1.4478) (end 2.0066 1.4478) (layer Eco2.User) (width 0.1))
  (fp_line (start 2.0066 0.8128) (end 2.0066 1.0922) (layer Eco2.User) (width 0.1))
  (fp_line (start 2.0066 1.0922) (end 3.0988 1.0922) (layer Eco2.User) (width 0.1))
  (fp_line (start 3.0988 1.0922) (end 3.0988 0.8128) (layer Eco2.User) (width 0.1))
  (fp_line (start 3.0988 0.8128) (end 2.0066 0.8128) (layer Eco2.User) (width 0.1))
  (fp_line (start 2.0066 0.1778) (end 2.0066 0.4572) (layer Eco2.User) (width 0.1))
  (fp_line (start 2.0066 0.4572) (end 3.0988 0.4572) (layer Eco2.User) (width 0.1))
  (fp_line (start 3.0988 0.4572) (end 3.0988 0.1778) (layer Eco2.User) (width 0.1))
  (fp_line (start 3.0988 0.1778) (end 2.0066 0.1778) (layer Eco2.User) (width 0.1))
  (fp_line (start 2.0066 -0.4572) (end 2.0066 -0.1778) (layer Eco2.User) (width 0.1))
  (fp_line (start 2.0066 -0.1778) (end 3.0988 -0.1778) (layer Eco2.User) (width 0.1))
  (fp_line (start 3.0988 -0.1778) (end 3.0988 -0.4572) (layer Eco2.User) (width 0.1))
  (fp_line (start 3.0988 -0.4572) (end 2.0066 -0.4572) (layer Eco2.User) (width 0.1))
  (fp_line (start 2.0066 -1.0922) (end 2.0066 -0.8128) (layer Eco2.User) (width 0.1))
  (fp_line (start 2.0066 -0.8128) (end 3.0988 -0.8128) (layer Eco2.User) (width 0.1))
  (fp_line (start 3.0988 -0.8128) (end 3.0988 -1.0922) (layer Eco2.User) (width 0.1))
  (fp_line (start 3.0988 -1.0922) (end 2.0066 -1.0922) (layer Eco2.User) (width 0.1))
  (fp_line (start 2.0066 -1.7272) (end 2.0066 -1.4478) (layer Eco2.User) (width 0.1))
  (fp_line (start 2.0066 -1.4478) (end 3.0988 -1.4478) (layer Eco2.User) (width 0.1))
  (fp_line (start 3.0988 -1.4478) (end 3.0988 -1.7272) (layer Eco2.User) (width 0.1))
  (fp_line (start 3.0988 -1.7272) (end 2.0066 -1.7272) (layer Eco2.User) (width 0.1))
  (fp_line (start 2.0066 -2.3622) (end 2.0066 -2.0828) (layer Eco2.User) (width 0.1))
  (fp_line (start 2.0066 -2.0828) (end 3.0988 -2.0828) (layer Eco2.User) (width 0.1))
  (fp_line (start 3.0988 -2.0828) (end 3.0988 -2.3622) (layer Eco2.User) (width 0.1))
  (fp_line (start 3.0988 -2.3622) (end 2.0066 -2.3622) (layer Eco2.User) (width 0.1))
  (fp_line (start -2.0066 2.4892) (end 2.0066 2.4892) (layer Eco2.User) (width 0.1))
  (fp_line (start 2.0066 2.4892) (end 2.0066 -2.4892) (layer Eco2.User) (width 0.1))
  (fp_line (start 2.0066 -2.4892) (end 0.3048 -2.4892) (layer Eco2.User) (width 0.1))
  (fp_line (start 0.3048 -2.4892) (end -0.3048 -2.4892) (layer Eco2.User) (width 0.1))
  (fp_line (start -0.3048 -2.4892) (end -2.0066 -2.4892) (layer Eco2.User) (width 0.1))
  (fp_line (start -2.0066 -2.4892) (end -2.0066 2.4892) (layer Eco2.User) (width 0.1))
  (fp_arc (start 0 -2.4892) (end -0.3048 -2.4892) (angle -180) (layer Eco2.User) (width 0.1))
  (fp_line (start -1.524 2.4892) (end 1.524 2.4892) (layer F.SilkS) (width 0.1524))
  (fp_line (start 1.524 -2.4892) (end 0.3048 -2.4892) (layer F.SilkS) (width 0.1524))
  (fp_line (start 0.3048 -2.4892) (end -0.3048 -2.4892) (layer F.SilkS) (width 0.1524))
  (fp_line (start -0.3048 -2.4892) (end -1.524 -2.4892) (layer F.SilkS) (width 0.1524))
  (fp_arc (start 0 -2.4892) (end -0.3048 -2.4892) (angle -180) (layer F.SilkS) (width 0.1524))
  (fp_circle (center -2.667 -3.0607) (end -2.6035 -2.9591) (layer F.SilkS) (width 0.12))
  (pad 1 smd rect (at -2.667 -2.2352) (size 1.6002 0.3556) (layers F.Cu F.Paste F.Mask))
  (pad 2 smd rect (at -2.667 -1.5748) (size 1.6002 0.3556) (layers F.Cu F.Paste F.Mask))
  (pad 3 smd rect (at -2.667 -0.9652) (size 1.6002 0.3556) (layers F.Cu F.Paste F.Mask))
  (pad 4 smd rect (at -2.667 -0.3048) (size 1.6002 0.3556) (layers F.Cu F.Paste F.Mask))
  (pad 5 smd rect (at -2.667 0.3048) (size 1.6002 0.3556) (layers F.Cu F.Paste F.Mask))
  (pad 6 smd rect (at -2.667 0.9652) (size 1.6002 0.3556) (layers F.Cu F.Paste F.Mask))
  (pad 7 smd rect (at -2.667 1.5748) (size 1.6002 0.3556) (layers F.Cu F.Paste F.Mask))
  (pad 8 smd rect (at -2.667 2.2352) (size 1.6002 0.3556) (layers F.Cu F.Paste F.Mask))
  (pad 9 smd rect (at 2.667 2.2352) (size 1.6002 0.3556) (layers F.Cu F.Paste F.Mask))
  (pad 10 smd rect (at 2.667 1.5748) (size 1.6002 0.3556) (layers F.Cu F.Paste F.Mask))
  (pad 11 smd rect (at 2.667 0.9652) (size 1.6002 0.3556) (layers F.Cu F.Paste F.Mask))
  (pad 12 smd rect (at 2.667 0.3048) (size 1.6002 0.3556) (layers F.Cu F.Paste F.Mask))
  (pad 13 smd rect (at 2.667 -0.3048) (size 1.6002 0.3556) (layers F.Cu F.Paste F.Mask))
  (pad 14 smd rect (at 2.667 -0.9652) (size 1.6002 0.3556) (layers F.Cu F.Paste F.Mask))
  (pad 15 smd rect (at 2.667 -1.5748) (size 1.6002 0.3556) (layers F.Cu F.Paste F.Mask))
  (pad 16 smd rect (at 2.667 -2.2352) (size 1.6002 0.3556) (layers F.Cu F.Paste F.Mask))
  (model :custom:21-0055H_16.step
    (at (xyz 0 0 0))
    (scale (xyz 1 1 1))
    (rotate (xyz 0 0 0))
  )
)
