(module XL4015-MODULE (layer F.Cu) (tedit 5E6FC312)
  (fp_text reference REF** (at 0 0.5) (layer F.SilkS)
    (effects (font (size 1 1) (thickness 0.15)))
  )
  (fp_text value XL4015-MODULE (at 0 -0.5) (layer F.Fab)
    (effects (font (size 1 1) (thickness 0.15)))
  )
  (fp_line (start -27.3 2.1) (end 26.8 2.1) (layer F.SilkS) (width 0.12))
  (fp_line (start 26.8 2.1) (end 26.8 26.3) (layer F.SilkS) (width 0.12))
  (fp_line (start 26.8 26.3) (end -27.3 26.3) (layer F.SilkS) (width 0.12))
  (fp_line (start -27.3 26.3) (end -27.3 2.1) (layer F.SilkS) (width 0.12))
  (fp_circle (center -28.8 3.9) (end -28.576393 3.9) (layer F.SilkS) (width 0.5))
  (pad 1 thru_hole rect (at -25.3 4.1) (size 3.3 3.3) (drill 1.35) (layers *.Cu *.Mask))
  (pad 2 thru_hole rect (at -25.3 24.3) (size 3.3 3.3) (drill 1.35) (layers *.Cu *.Mask))
  (pad 3 thru_hole rect (at 24.8 24.3) (size 3.3 3.3) (drill 1.35) (layers *.Cu *.Mask))
  (pad 4 thru_hole rect (at 24.8 4.1) (size 3.3 3.3) (drill 1.35) (layers *.Cu *.Mask))
)
