EESchema Schematic File Version 4
LIBS:temperature-controller-cache
EELAYER 30 0
EELAYER END
$Descr A4 11693 8268
encoding utf-8
Sheet 1 1
Title ""
Date ""
Rev ""
Comp ""
Comment1 ""
Comment2 ""
Comment3 ""
Comment4 ""
$EndDescr
$Comp
L custom:MAX11629EEE+ U2
U 1 1 5D954BBA
P 3850 3150
F 0 "U2" H 3850 4220 50  0000 C CNN
F 1 "MAX11629EEE+" H 3850 4129 50  0000 C CNN
F 2 "custom:SOP63P602X175-16N" H 3850 3150 50  0001 L BNN
F 3 "MAX11629EEE+-ND" H 3850 3150 50  0001 L BNN
F 4 "https://www.digikey.com/product-detail/en/maxim-integrated/MAX11629EEE-/MAX11629EEE--ND/2591494?utm_source=snapeda&utm_medium=aggregator&utm_campaign=symbol" H 3850 3150 50  0001 L BNN "Field4"
F 5 "QSOP-16 Maxim" H 3850 3150 50  0001 L BNN "Field5"
F 6 "MAX11629EEE+" H 3850 3150 50  0001 L BNN "Field6"
F 7 "ADC Single SAR 300ksps 12-bit Serial 16-Pin QSOP" H 3850 3150 50  0001 L BNN "Field7"
F 8 "Maxim Integrated" H 3850 3150 50  0001 L BNN "Field8"
	1    3850 3150
	1    0    0    -1  
$EndComp
$Comp
L dk_Rectangular-Connectors-Headers-Male-Pins:B4B-XH-A_LF__SN_ J1
U 1 1 5D955C5C
P 1400 2100
F 0 "J1" V 1267 2108 50  0000 C CNN
F 1 "B4B-XH-A_LF__SN_" V 1266 2108 50  0001 C CNN
F 2 "custom:B4B-XH-A(LF)(SN)" H 1600 2300 60  0001 L CNN
F 3 "http://www.jst-mfg.com/product/pdf/eng/eXH.pdf" H 1600 2400 60  0001 L CNN
F 4 "455-2249-ND" H 1600 2500 60  0001 L CNN "Digi-Key_PN"
F 5 "B4B-XH-A(LF)(SN)" H 1600 2600 60  0001 L CNN "MPN"
F 6 "Connectors, Interconnects" H 1600 2700 60  0001 L CNN "Category"
F 7 "Rectangular Connectors - Headers, Male Pins" H 1600 2800 60  0001 L CNN "Family"
F 8 "http://www.jst-mfg.com/product/pdf/eng/eXH.pdf" H 1600 2900 60  0001 L CNN "DK_Datasheet_Link"
F 9 "/product-detail/en/jst-sales-america-inc/B4B-XH-A(LF)(SN)/455-2249-ND/1651047" H 1600 3000 60  0001 L CNN "DK_Detail_Page"
F 10 "CONN HEADER VERT 4POS 2.5MM" H 1600 3100 60  0001 L CNN "Description"
F 11 "JST Sales America Inc." H 1600 3200 60  0001 L CNN "Manufacturer"
F 12 "Active" H 1600 3300 60  0001 L CNN "Status"
	1    1400 2100
	0    1    1    0   
$EndComp
$Comp
L dk_Rectangular-Connectors-Headers-Male-Pins:B4B-XH-A_LF__SN_ J2
U 1 1 5D9579CE
P 1400 2800
F 0 "J2" V 1267 2808 50  0000 C CNN
F 1 "B4B-XH-A_LF__SN_" V 1266 2808 50  0001 C CNN
F 2 "custom:B4B-XH-A(LF)(SN)" H 1600 3000 60  0001 L CNN
F 3 "http://www.jst-mfg.com/product/pdf/eng/eXH.pdf" H 1600 3100 60  0001 L CNN
F 4 "455-2249-ND" H 1600 3200 60  0001 L CNN "Digi-Key_PN"
F 5 "B4B-XH-A(LF)(SN)" H 1600 3300 60  0001 L CNN "MPN"
F 6 "Connectors, Interconnects" H 1600 3400 60  0001 L CNN "Category"
F 7 "Rectangular Connectors - Headers, Male Pins" H 1600 3500 60  0001 L CNN "Family"
F 8 "http://www.jst-mfg.com/product/pdf/eng/eXH.pdf" H 1600 3600 60  0001 L CNN "DK_Datasheet_Link"
F 9 "/product-detail/en/jst-sales-america-inc/B4B-XH-A(LF)(SN)/455-2249-ND/1651047" H 1600 3700 60  0001 L CNN "DK_Detail_Page"
F 10 "CONN HEADER VERT 4POS 2.5MM" H 1600 3800 60  0001 L CNN "Description"
F 11 "JST Sales America Inc." H 1600 3900 60  0001 L CNN "Manufacturer"
F 12 "Active" H 1600 4000 60  0001 L CNN "Status"
	1    1400 2800
	0    1    1    0   
$EndComp
$Comp
L dk_Rectangular-Connectors-Headers-Male-Pins:B4B-XH-A_LF__SN_ J3
U 1 1 5D9583AF
P 1400 3500
F 0 "J3" V 1267 3508 50  0000 C CNN
F 1 "B4B-XH-A_LF__SN_" V 1266 3508 50  0001 C CNN
F 2 "custom:B4B-XH-A(LF)(SN)" H 1600 3700 60  0001 L CNN
F 3 "http://www.jst-mfg.com/product/pdf/eng/eXH.pdf" H 1600 3800 60  0001 L CNN
F 4 "455-2249-ND" H 1600 3900 60  0001 L CNN "Digi-Key_PN"
F 5 "B4B-XH-A(LF)(SN)" H 1600 4000 60  0001 L CNN "MPN"
F 6 "Connectors, Interconnects" H 1600 4100 60  0001 L CNN "Category"
F 7 "Rectangular Connectors - Headers, Male Pins" H 1600 4200 60  0001 L CNN "Family"
F 8 "http://www.jst-mfg.com/product/pdf/eng/eXH.pdf" H 1600 4300 60  0001 L CNN "DK_Datasheet_Link"
F 9 "/product-detail/en/jst-sales-america-inc/B4B-XH-A(LF)(SN)/455-2249-ND/1651047" H 1600 4400 60  0001 L CNN "DK_Detail_Page"
F 10 "CONN HEADER VERT 4POS 2.5MM" H 1600 4500 60  0001 L CNN "Description"
F 11 "JST Sales America Inc." H 1600 4600 60  0001 L CNN "Manufacturer"
F 12 "Active" H 1600 4700 60  0001 L CNN "Status"
	1    1400 3500
	0    1    1    0   
$EndComp
$Comp
L dk_Rectangular-Connectors-Headers-Male-Pins:B4B-XH-A_LF__SN_ J4
U 1 1 5D958D9A
P 1400 4150
F 0 "J4" V 1267 4158 50  0000 C CNN
F 1 "B4B-XH-A_LF__SN_" V 1266 4158 50  0001 C CNN
F 2 "custom:B4B-XH-A(LF)(SN)" H 1600 4350 60  0001 L CNN
F 3 "http://www.jst-mfg.com/product/pdf/eng/eXH.pdf" H 1600 4450 60  0001 L CNN
F 4 "455-2249-ND" H 1600 4550 60  0001 L CNN "Digi-Key_PN"
F 5 "B4B-XH-A(LF)(SN)" H 1600 4650 60  0001 L CNN "MPN"
F 6 "Connectors, Interconnects" H 1600 4750 60  0001 L CNN "Category"
F 7 "Rectangular Connectors - Headers, Male Pins" H 1600 4850 60  0001 L CNN "Family"
F 8 "http://www.jst-mfg.com/product/pdf/eng/eXH.pdf" H 1600 4950 60  0001 L CNN "DK_Datasheet_Link"
F 9 "/product-detail/en/jst-sales-america-inc/B4B-XH-A(LF)(SN)/455-2249-ND/1651047" H 1600 5050 60  0001 L CNN "DK_Detail_Page"
F 10 "CONN HEADER VERT 4POS 2.5MM" H 1600 5150 60  0001 L CNN "Description"
F 11 "JST Sales America Inc." H 1600 5250 60  0001 L CNN "Manufacturer"
F 12 "Active" H 1600 5350 60  0001 L CNN "Status"
	1    1400 4150
	0    1    1    0   
$EndComp
$Comp
L power:+5V #PWR03
U 1 1 5D959943
P 1850 1450
F 0 "#PWR03" H 1850 1300 50  0001 C CNN
F 1 "+5V" H 1865 1623 50  0000 C CNN
F 2 "" H 1850 1450 50  0001 C CNN
F 3 "" H 1850 1450 50  0001 C CNN
	1    1850 1450
	1    0    0    -1  
$EndComp
$Comp
L power:GND #PWR04
U 1 1 5D95A01B
P 2050 4800
F 0 "#PWR04" H 2050 4550 50  0001 C CNN
F 1 "GND" H 2055 4627 50  0000 C CNN
F 2 "" H 2050 4800 50  0001 C CNN
F 3 "" H 2050 4800 50  0001 C CNN
	1    2050 4800
	1    0    0    -1  
$EndComp
$Comp
L power:GNDPWR #PWR02
U 1 1 5D95A9F0
P 1700 4800
F 0 "#PWR02" H 1700 4550 50  0001 C CNN
F 1 "GNDPWR" H 1705 4627 50  0000 C CNN
F 2 "" H 1700 4800 50  0001 C CNN
F 3 "~" H 1700 4800 50  0001 C CNN
	1    1700 4800
	1    0    0    -1  
$EndComp
Wire Wire Line
	1500 2400 1700 2400
Wire Wire Line
	1700 2400 1700 3100
Wire Wire Line
	1500 3100 1700 3100
Connection ~ 1700 3100
Wire Wire Line
	1700 3100 1700 3800
Wire Wire Line
	1500 3800 1700 3800
Connection ~ 1700 3800
Wire Wire Line
	1700 3800 1700 4450
Wire Wire Line
	1500 4450 1700 4450
Connection ~ 1700 4450
Wire Wire Line
	1700 4450 1700 4700
Wire Wire Line
	1500 2200 2050 2200
Wire Wire Line
	2050 2200 2050 2900
Wire Wire Line
	1500 2900 2050 2900
Connection ~ 2050 2900
Wire Wire Line
	2050 2900 2050 3600
Wire Wire Line
	1500 3600 2050 3600
Connection ~ 2050 3600
Wire Wire Line
	2050 3600 2050 4250
Wire Wire Line
	1500 4250 2050 4250
Connection ~ 2050 4250
Wire Wire Line
	2050 4250 2050 4500
Wire Wire Line
	1500 2100 1850 2100
Wire Wire Line
	1850 2100 1850 1450
Wire Wire Line
	1500 2800 1850 2800
Wire Wire Line
	1850 2800 1850 2100
Connection ~ 1850 2100
Wire Wire Line
	1500 4150 1850 4150
Wire Wire Line
	1850 4150 1850 3500
Connection ~ 1850 2800
Wire Wire Line
	1500 3500 1850 3500
Connection ~ 1850 3500
Wire Wire Line
	1850 3500 1850 2800
Wire Wire Line
	1500 2300 2400 2300
Wire Wire Line
	2400 2300 2400 3050
Wire Wire Line
	1500 3000 2300 3000
Wire Wire Line
	2300 3000 2300 3150
Wire Wire Line
	1500 3700 2300 3700
Wire Wire Line
	2300 3700 2300 3250
Wire Wire Line
	1500 4350 2400 4350
Wire Wire Line
	2400 4350 2400 3350
Wire Wire Line
	2400 3050 3150 3050
Wire Wire Line
	2300 3150 3150 3150
Wire Wire Line
	2300 3250 3150 3250
Wire Wire Line
	2400 3350 3150 3350
$Comp
L power:+3.3V #PWR06
U 1 1 5D96CCEB
P 3050 1450
F 0 "#PWR06" H 3050 1300 50  0001 C CNN
F 1 "+3.3V" H 3065 1623 50  0000 C CNN
F 2 "" H 3050 1450 50  0001 C CNN
F 3 "" H 3050 1450 50  0001 C CNN
	1    3050 1450
	1    0    0    -1  
$EndComp
Wire Wire Line
	3050 2450 3150 2450
Wire Wire Line
	3150 4050 2700 4050
Wire Wire Line
	2700 4050 2700 4500
Wire Wire Line
	2700 4500 2050 4500
Connection ~ 2050 4500
Wire Wire Line
	2050 4500 2050 4800
Wire Wire Line
	3050 1450 2700 1450
Wire Wire Line
	2700 1450 2700 1550
Connection ~ 3050 1450
Wire Wire Line
	3050 1450 3050 2450
Wire Wire Line
	2700 1450 2350 1450
Wire Wire Line
	2350 1450 2350 1550
Connection ~ 2700 1450
Wire Wire Line
	2700 1850 2700 1950
Connection ~ 2700 4050
Wire Wire Line
	2350 1850 2350 1950
Wire Wire Line
	2350 1950 2700 1950
Connection ~ 2700 1950
Wire Wire Line
	2700 1950 2700 4050
NoConn ~ 3150 2650
NoConn ~ 3150 3450
NoConn ~ 3150 3550
NoConn ~ 3150 3650
NoConn ~ 3150 3750
Wire Wire Line
	3150 2750 3000 2750
Wire Wire Line
	3150 2850 3000 2850
Wire Wire Line
	3150 3850 3000 3850
Wire Wire Line
	4550 2550 4700 2550
Wire Wire Line
	4550 2450 4700 2450
$Comp
L Device:C C2
U 1 1 5D96FBD2
P 2350 1700
F 0 "C2" H 2465 1746 50  0000 L CNN
F 1 "1uF" H 2465 1655 50  0000 L CNN
F 2 "Capacitor_SMD:C_0603_1608Metric_Pad1.05x0.95mm_HandSolder" H 2388 1550 50  0001 C CNN
F 3 "~" H 2350 1700 50  0001 C CNN
F 4 "10V" H 2350 1700 50  0001 C CNN "Voltage"
	1    2350 1700
	1    0    0    -1  
$EndComp
$Comp
L Device:C C3
U 1 1 5D9701DE
P 2700 1700
F 0 "C3" H 2815 1746 50  0000 L CNN
F 1 "10uF" H 2815 1655 50  0000 L CNN
F 2 "Capacitor_SMD:C_0805_2012Metric_Pad1.15x1.40mm_HandSolder" H 2738 1550 50  0001 C CNN
F 3 "~" H 2700 1700 50  0001 C CNN
F 4 "10V" H 2700 1700 50  0001 C CNN "Voltage"
	1    2700 1700
	1    0    0    -1  
$EndComp
$Comp
L custom:LTC6820IMS-TRPBF U4
U 1 1 5D99CC6C
P 7050 1900
F 0 "U4" H 8250 2287 60  0000 C CNN
F 1 "LTC6820IMS-TRPBF" H 8250 2181 60  0000 C CNN
F 2 "custom:LTC6820IMS-TRPBF" H 8250 2140 60  0001 C CNN
F 3 "" H 7050 1900 60  0000 C CNN
	1    7050 1900
	1    0    0    -1  
$EndComp
$Comp
L power:GND #PWR016
U 1 1 5D9A6E89
P 9750 3200
F 0 "#PWR016" H 9750 2950 50  0001 C CNN
F 1 "GND" H 9755 3027 50  0000 C CNN
F 2 "" H 9750 3200 50  0001 C CNN
F 3 "" H 9750 3200 50  0001 C CNN
	1    9750 3200
	1    0    0    -1  
$EndComp
$Comp
L Device:C C9
U 1 1 5D9A951D
P 9750 3000
F 0 "C9" H 9865 3046 50  0000 L CNN
F 1 "100nF" H 9865 2955 50  0000 L CNN
F 2 "Capacitor_SMD:C_0805_2012Metric_Pad1.15x1.40mm_HandSolder" H 9788 2850 50  0001 C CNN
F 3 "~" H 9750 3000 50  0001 C CNN
F 4 "10V" H 9750 3000 50  0001 C CNN "Voltage"
	1    9750 3000
	1    0    0    -1  
$EndComp
$Comp
L power:GND #PWR014
U 1 1 5D9B1E10
P 9750 2100
F 0 "#PWR014" H 9750 1850 50  0001 C CNN
F 1 "GND" H 9755 1927 50  0000 C CNN
F 2 "" H 9750 2100 50  0001 C CNN
F 3 "" H 9750 2100 50  0001 C CNN
	1    9750 2100
	1    0    0    -1  
$EndComp
Wire Wire Line
	9450 2100 9600 2100
Wire Wire Line
	9450 2600 9450 2850
Wire Wire Line
	9750 2800 9750 2850
Connection ~ 9750 2850
Wire Wire Line
	9750 3150 9750 3200
Wire Wire Line
	9450 2850 9750 2850
Wire Wire Line
	9450 2200 9600 2200
Wire Wire Line
	9600 2200 9600 2100
Connection ~ 9600 2100
Wire Wire Line
	9600 2100 9750 2100
Wire Wire Line
	9450 2300 9600 2300
Wire Wire Line
	9600 2300 9600 2200
Connection ~ 9600 2200
$Comp
L Device:R R2
U 1 1 5D9D2BAF
P 9750 1800
F 0 "R2" V 9543 1800 50  0000 C CNN
F 1 "2.8K" V 9634 1800 50  0000 C CNN
F 2 "Capacitor_SMD:C_0603_1608Metric_Pad1.05x0.95mm_HandSolder" V 9680 1800 50  0001 C CNN
F 3 "~" H 9750 1800 50  0001 C CNN
	1    9750 1800
	0    1    1    0   
$EndComp
$Comp
L Device:R R4
U 1 1 5D9D3961
P 10150 1800
F 0 "R4" V 9943 1800 50  0000 C CNN
F 1 "1.21K" V 10034 1800 50  0000 C CNN
F 2 "Capacitor_SMD:C_0603_1608Metric_Pad1.05x0.95mm_HandSolder" V 10080 1800 50  0001 C CNN
F 3 "~" H 10150 1800 50  0001 C CNN
	1    10150 1800
	0    1    1    0   
$EndComp
Wire Wire Line
	9450 2000 9950 2000
Wire Wire Line
	9450 1900 9600 1900
Wire Wire Line
	9600 1900 9600 1800
Wire Wire Line
	9900 1800 9950 1800
Wire Wire Line
	9950 2000 9950 1800
Wire Wire Line
	10000 1800 9950 1800
Connection ~ 9950 1800
Wire Wire Line
	9750 2100 10300 2100
Wire Wire Line
	10300 1800 10300 2100
Connection ~ 9750 2100
$Comp
L power:+3.3V #PWR09
U 1 1 5DA0AC26
P 6500 1600
F 0 "#PWR09" H 6500 1450 50  0001 C CNN
F 1 "+3.3V" H 6515 1773 50  0000 C CNN
F 2 "" H 6500 1600 50  0001 C CNN
F 3 "" H 6500 1600 50  0001 C CNN
	1    6500 1600
	1    0    0    -1  
$EndComp
Wire Wire Line
	6500 1900 6500 2400
$Comp
L power:GND #PWR010
U 1 1 5DA16CD6
P 6900 2850
F 0 "#PWR010" H 6900 2600 50  0001 C CNN
F 1 "GND" H 6905 2677 50  0000 C CNN
F 2 "" H 6900 2850 50  0001 C CNN
F 3 "" H 6900 2850 50  0001 C CNN
	1    6900 2850
	1    0    0    -1  
$EndComp
Wire Wire Line
	7050 2500 6900 2500
$Comp
L Device:C C7
U 1 1 5DA33CAB
P 6500 2550
F 0 "C7" H 6386 2504 50  0000 R CNN
F 1 "100nF" H 6386 2595 50  0000 R CNN
F 2 "Capacitor_SMD:C_0805_2012Metric_Pad1.15x1.40mm_HandSolder" H 6538 2400 50  0001 C CNN
F 3 "~" H 6500 2550 50  0001 C CNN
F 4 "10V" H 6500 2550 50  0001 C CNN "Voltage"
	1    6500 2550
	1    0    0    1   
$EndComp
Connection ~ 6500 2400
Connection ~ 6900 2700
Wire Wire Line
	6900 2700 6900 2850
Wire Wire Line
	6900 2500 6900 2700
Wire Wire Line
	7050 2600 7050 2700
Wire Wire Line
	7050 2700 6900 2700
$Comp
L Device:R R1
U 1 1 5DA3DA2D
P 6300 1850
F 0 "R1" V 6200 1900 50  0000 C CNN
F 1 "2K" V 6200 1750 50  0000 C CNN
F 2 "Capacitor_SMD:C_0603_1608Metric_Pad1.05x0.95mm_HandSolder" V 6230 1850 50  0001 C CNN
F 3 "~" H 6300 1850 50  0001 C CNN
	1    6300 1850
	-1   0    0    1   
$EndComp
Connection ~ 6500 1900
Wire Wire Line
	6500 2400 7050 2400
Wire Wire Line
	6750 2300 7050 2300
Wire Wire Line
	6750 2200 7050 2200
Wire Wire Line
	6500 1900 7050 1900
Wire Wire Line
	6500 2700 6900 2700
Wire Wire Line
	9450 2400 10000 2400
$Comp
L Device:R R3
U 1 1 5DA693E1
P 10000 2550
F 0 "R3" H 9930 2504 50  0000 R CNN
F 1 "120R" H 9930 2595 50  0000 R CNN
F 2 "Capacitor_SMD:C_0603_1608Metric_Pad1.05x0.95mm_HandSolder" V 9930 2550 50  0001 C CNN
F 3 "~" H 10000 2550 50  0001 C CNN
	1    10000 2550
	-1   0    0    1   
$EndComp
Connection ~ 10000 2400
Wire Wire Line
	10000 2400 10350 2400
Wire Wire Line
	9450 2500 9900 2500
Wire Wire Line
	9900 2500 9900 2700
Wire Wire Line
	9900 2700 10000 2700
Wire Wire Line
	10000 2700 10350 2700
Connection ~ 10000 2700
$Comp
L Device:C C8
U 1 1 5DAA47E8
P 8850 4150
F 0 "C8" H 8965 4196 50  0000 L CNN
F 1 "27pF" H 8965 4105 50  0000 L CNN
F 2 "Capacitor_SMD:C_0603_1608Metric_Pad1.05x0.95mm_HandSolder" H 8888 4000 50  0001 C CNN
F 3 "~" H 8850 4150 50  0001 C CNN
F 4 "10V" H 8850 4150 50  0001 C CNN "Voltage"
	1    8850 4150
	1    0    0    -1  
$EndComp
$Comp
L power:GND #PWR011
U 1 1 5DAD33AF
P 8850 4300
F 0 "#PWR011" H 8850 4050 50  0001 C CNN
F 1 "GND" H 8855 4127 50  0000 C CNN
F 2 "" H 8850 4300 50  0001 C CNN
F 3 "" H 8850 4300 50  0001 C CNN
	1    8850 4300
	1    0    0    -1  
$EndComp
$Comp
L power:+12V #PWR012
U 1 1 5DAEFAC7
P 9200 5500
F 0 "#PWR012" H 9200 5350 50  0001 C CNN
F 1 "+12V" H 9215 5673 50  0000 C CNN
F 2 "" H 9200 5500 50  0001 C CNN
F 3 "" H 9200 5500 50  0001 C CNN
	1    9200 5500
	1    0    0    -1  
$EndComp
$Comp
L power:GND #PWR013
U 1 1 5DAF0D46
P 9200 5750
F 0 "#PWR013" H 9200 5500 50  0001 C CNN
F 1 "GND" H 9205 5577 50  0000 C CNN
F 2 "" H 9200 5750 50  0001 C CNN
F 3 "" H 9200 5750 50  0001 C CNN
	1    9200 5750
	1    0    0    -1  
$EndComp
Wire Wire Line
	8400 5550 8850 5550
Wire Wire Line
	9200 5550 9200 5500
Wire Wire Line
	8400 5650 8850 5650
Wire Wire Line
	9200 5650 9200 5750
Wire Wire Line
	7600 5750 7800 5750
Wire Wire Line
	7600 5550 7800 5550
Connection ~ 2950 6950
Wire Wire Line
	2950 7050 2950 6950
Wire Wire Line
	4950 6300 4950 6550
Wire Wire Line
	4950 6850 4950 6950
Wire Wire Line
	3150 6950 2950 6950
Wire Wire Line
	3150 6850 3150 6950
$Comp
L power:+3.3V #PWR08
U 1 1 5D98372C
P 4950 6300
F 0 "#PWR08" H 4950 6150 50  0001 C CNN
F 1 "+3.3V" H 4965 6473 50  0000 C CNN
F 2 "" H 4950 6300 50  0001 C CNN
F 3 "" H 4950 6300 50  0001 C CNN
	1    4950 6300
	1    0    0    -1  
$EndComp
$Comp
L Device:C C6
U 1 1 5D982850
P 4950 6700
F 0 "C6" H 5065 6746 50  0000 L CNN
F 1 "22uF" H 5065 6655 50  0000 L CNN
F 2 "Capacitor_SMD:C_1206_3216Metric_Pad1.42x1.75mm_HandSolder" H 4988 6550 50  0001 C CNN
F 3 "~" H 4950 6700 50  0001 C CNN
F 4 "16V" H 4950 6700 50  0001 C CNN "Voltage"
	1    4950 6700
	1    0    0    -1  
$EndComp
Wire Wire Line
	2700 6550 3150 6550
$Comp
L Device:C C5
U 1 1 5D981F22
P 3150 6700
F 0 "C5" H 3265 6746 50  0000 L CNN
F 1 "10uF" H 3265 6655 50  0000 L CNN
F 2 "Capacitor_SMD:C_0805_2012Metric_Pad1.15x1.40mm_HandSolder" H 3188 6550 50  0001 C CNN
F 3 "~" H 3150 6700 50  0001 C CNN
F 4 "10V" H 3150 6700 50  0001 C CNN "Voltage"
	1    3150 6700
	1    0    0    -1  
$EndComp
Wire Wire Line
	2950 6950 2700 6950
Connection ~ 2700 6950
Wire Wire Line
	2700 6850 2700 6950
Wire Wire Line
	2700 6550 2700 6300
Connection ~ 2700 6550
$Comp
L power:+5V #PWR05
U 1 1 5D97B1B3
P 2700 6300
F 0 "#PWR05" H 2700 6150 50  0001 C CNN
F 1 "+5V" H 2715 6473 50  0000 C CNN
F 2 "" H 2700 6300 50  0001 C CNN
F 3 "" H 2700 6300 50  0001 C CNN
	1    2700 6300
	1    0    0    -1  
$EndComp
Wire Wire Line
	1000 6850 1000 6950
Wire Wire Line
	1000 6550 1350 6550
Wire Wire Line
	1000 6300 1000 6550
$Comp
L power:GND #PWR07
U 1 1 5D9751F2
P 2950 7050
F 0 "#PWR07" H 2950 6800 50  0001 C CNN
F 1 "GND" H 2955 6877 50  0000 C CNN
F 2 "" H 2950 7050 50  0001 C CNN
F 3 "" H 2950 7050 50  0001 C CNN
	1    2950 7050
	1    0    0    -1  
$EndComp
$Comp
L power:+12V #PWR01
U 1 1 5D974BDC
P 1000 6300
F 0 "#PWR01" H 1000 6150 50  0001 C CNN
F 1 "+12V" H 1015 6473 50  0000 C CNN
F 2 "" H 1000 6300 50  0001 C CNN
F 3 "" H 1000 6300 50  0001 C CNN
	1    1000 6300
	1    0    0    -1  
$EndComp
$Comp
L Device:C C4
U 1 1 5D9747F2
P 2700 6700
F 0 "C4" H 2815 6746 50  0000 L CNN
F 1 "22uF" H 2815 6655 50  0000 L CNN
F 2 "Capacitor_SMD:C_1206_3216Metric_Pad1.42x1.75mm_HandSolder" H 2738 6550 50  0001 C CNN
F 3 "~" H 2700 6700 50  0001 C CNN
F 4 "16V" H 2700 6700 50  0001 C CNN "Voltage"
	1    2700 6700
	1    0    0    -1  
$EndComp
Connection ~ 1000 6550
$Comp
L Device:C C1
U 1 1 5D973CB3
P 1000 6700
F 0 "C1" H 1115 6746 50  0000 L CNN
F 1 "10uF" H 1115 6655 50  0000 L CNN
F 2 "Capacitor_SMD:C_1206_3216Metric_Pad1.42x1.75mm_HandSolder" H 1038 6550 50  0001 C CNN
F 3 "~" H 1000 6700 50  0001 C CNN
F 4 "25V" H 1000 6700 50  0001 C CNN "Voltage"
	1    1000 6700
	1    0    0    -1  
$EndComp
Wire Notes Line
	750  5500 5300 5500
Wire Notes Line
	5300 5500 5300 7450
Wire Notes Line
	5300 7450 750  7450
Wire Notes Line
	750  7450 750  5500
Text Notes 3450 5800 2    98   ~ 20
Power Supply
Wire Notes Line
	750  850  5300 850 
Wire Notes Line
	5300 850  5300 5200
Wire Notes Line
	5300 5200 750  5200
Wire Notes Line
	750  5200 750  850 
Text Notes 3050 1100 2    98   ~ 20
ADC
Wire Notes Line
	5750 4700 10900 4700
Wire Notes Line
	10900 4700 10900 850 
Wire Notes Line
	5750 850  10900 850 
Wire Notes Line
	6750 4850 9700 4850
Wire Notes Line
	9700 4850 9700 6400
Wire Notes Line
	9700 6400 6750 6400
Wire Notes Line
	6750 6400 6750 4850
Text Notes 8850 1100 2    98   ~ 20
SPI Isolation
Text Notes 9550 5100 2    98   ~ 20
Main Board Connection
Text Label 3000 2750 0    39   ~ 0
CS
Text Label 3000 2850 0    39   ~ 0
CLK
Text Label 3000 3850 0    39   ~ 0
MOSI
Text Label 4700 2450 2    39   ~ 0
MISO
Text Label 4700 2550 2    39   ~ 0
EOC
Text Label 6750 2000 0    39   ~ 0
MOSI
Text Label 6750 2100 0    39   ~ 0
MISO
Text Label 6750 2200 0    39   ~ 0
CLK
Text Label 6850 2300 2    39   ~ 0
CS
Text Label 10350 2400 2    39   ~ 0
IP
Text Label 10350 2700 2    39   ~ 0
IM
Text Label 7800 5650 2    39   ~ 0
IP_EXT
Text Label 7800 5550 2    39   ~ 0
EOC
$Comp
L power:PWR_FLAG #FLG02
U 1 1 5DC6304F
P 8850 5550
F 0 "#FLG02" H 8850 5625 50  0001 C CNN
F 1 "PWR_FLAG" H 8850 5723 50  0000 C CNN
F 2 "" H 8850 5550 50  0001 C CNN
F 3 "~" H 8850 5550 50  0001 C CNN
	1    8850 5550
	1    0    0    -1  
$EndComp
Connection ~ 8850 5550
Wire Wire Line
	8850 5550 9200 5550
$Comp
L power:PWR_FLAG #FLG03
U 1 1 5DC634F9
P 8850 5650
F 0 "#FLG03" H 8850 5725 50  0001 C CNN
F 1 "PWR_FLAG" H 8850 5823 50  0000 C CNN
F 2 "" H 8850 5650 50  0001 C CNN
F 3 "~" H 8850 5650 50  0001 C CNN
	1    8850 5650
	1    0    0    1   
$EndComp
Connection ~ 8850 5650
Wire Wire Line
	8850 5650 9200 5650
$Comp
L power:PWR_FLAG #FLG01
U 1 1 5DC641E3
P 1700 4700
F 0 "#FLG01" H 1700 4775 50  0001 C CNN
F 1 "PWR_FLAG" V 1700 4827 50  0000 L CNN
F 2 "" H 1700 4700 50  0001 C CNN
F 3 "~" H 1700 4700 50  0001 C CNN
	1    1700 4700
	0    -1   -1   0   
$EndComp
Connection ~ 1700 4700
Wire Wire Line
	1700 4700 1700 4800
$Comp
L custom:AZ1117CH-5.0TRG1 U1
U 1 1 5DC79CC2
P 2600 6450
F 0 "U1" H 3250 6700 60  0000 C CNN
F 1 "AZ1117CH-5.0TRG1" H 3250 6600 60  0000 C CNN
F 2 "custom:AZ1117CH" H 3350 6690 60  0001 C CNN
F 3 "" H 2600 6450 60  0000 C CNN
	1    2600 6450
	-1   0    0    -1  
$EndComp
Wire Wire Line
	2500 6550 2700 6550
Wire Wire Line
	1000 6950 2550 6950
Wire Wire Line
	2500 6450 2550 6450
Wire Wire Line
	2550 6450 2550 6950
Connection ~ 2550 6950
Wire Wire Line
	2550 6950 2700 6950
Wire Wire Line
	3150 6950 4800 6950
$Comp
L custom:AZ1117CH-3.3TRG1 U3
U 1 1 5DCD9457
P 4800 6450
F 0 "U3" H 5475 6737 60  0000 C CNN
F 1 "AZ1117CH-3.3TRG1" H 5475 6631 60  0000 C CNN
F 2 "custom:AZ1117CH" H 5450 6200 60  0001 C CNN
F 3 "" H 4800 6450 60  0000 C CNN
	1    4800 6450
	-1   0    0    -1  
$EndComp
Connection ~ 3150 6950
Connection ~ 4950 6550
Wire Wire Line
	4700 6450 4800 6450
Wire Wire Line
	4800 6450 4800 6950
Connection ~ 4800 6950
Wire Wire Line
	4800 6950 4950 6950
Wire Wire Line
	3150 6550 3550 6550
Connection ~ 3150 6550
Wire Wire Line
	4700 6550 4950 6550
$Comp
L Transformer:PT61017PEL TR1
U 1 1 5DD0FB0B
P 8050 4100
F 0 "TR1" H 8050 4642 50  0000 C CNN
F 1 "PT61017PEL" H 8050 4551 50  0000 C CNN
F 2 "custom:PT61017PEL" H 8050 3600 50  0001 C CNN
F 3 "https://www.bourns.com/docs/Product-Datasheets/PT61017PEL.pdf" H 7350 4450 50  0001 C CNN
	1    8050 4100
	1    0    0    -1  
$EndComp
Wire Wire Line
	8850 3900 8850 4000
Wire Wire Line
	8450 3800 8600 3800
Wire Wire Line
	8450 4000 8600 4000
Text Label 8600 3800 2    39   ~ 0
IP
Text Label 8600 4000 2    39   ~ 0
IM
Wire Wire Line
	8450 3900 8850 3900
Wire Wire Line
	7650 3800 7350 3800
Wire Wire Line
	7650 4000 7350 4000
Text Label 7350 3800 0    39   ~ 0
IP_EXT
Text Label 7350 4000 0    39   ~ 0
IM_EXT
NoConn ~ 7650 3900
NoConn ~ 8450 4200
NoConn ~ 8450 4300
NoConn ~ 8450 4400
NoConn ~ 7650 4400
NoConn ~ 7650 4300
NoConn ~ 7650 4200
Wire Notes Line
	5750 850  5750 4700
$Comp
L Device:R R5
U 1 1 5DA43B65
P 6150 1850
F 0 "R5" V 6250 1900 50  0000 C CNN
F 1 "2K" V 6250 1750 50  0000 C CNN
F 2 "Capacitor_SMD:C_0603_1608Metric_Pad1.05x0.95mm_HandSolder" V 6080 1850 50  0001 C CNN
F 3 "~" H 6150 1850 50  0001 C CNN
	1    6150 1850
	-1   0    0    1   
$EndComp
Wire Wire Line
	6500 1600 6500 1650
Wire Wire Line
	6300 1700 6300 1650
Wire Wire Line
	6300 1650 6500 1650
Connection ~ 6500 1650
Wire Wire Line
	6500 1650 6500 1900
Wire Wire Line
	6150 1700 6150 1650
Wire Wire Line
	6150 1650 6300 1650
Connection ~ 6300 1650
Wire Wire Line
	6300 2000 7050 2000
Wire Wire Line
	6150 2100 6150 2000
Wire Wire Line
	6150 2100 7050 2100
$Comp
L Connector:RJ45_Shielded J5
U 1 1 5DA50EE1
P 7200 5750
F 0 "J5" H 7257 6417 50  0000 C CNN
F 1 "RJ45_Shielded" H 7257 6326 50  0000 C CNN
F 2 "custom:Wurth-615008140121" V 7200 5775 50  0001 C CNN
F 3 "~" V 7200 5775 50  0001 C CNN
	1    7200 5750
	1    0    0    -1  
$EndComp
Text Label 7800 5750 2    39   ~ 0
IM_EXT
Wire Wire Line
	7600 5650 7800 5650
Wire Wire Line
	7600 5350 7650 5350
Wire Wire Line
	8400 5350 8400 5550
Wire Wire Line
	7600 5450 7650 5450
Wire Wire Line
	7650 5450 7650 5350
Connection ~ 7650 5350
Wire Wire Line
	7650 5350 8400 5350
Wire Wire Line
	7600 6050 7650 6050
Wire Wire Line
	8400 6050 8400 5650
Wire Wire Line
	7600 5950 7650 5950
Wire Wire Line
	7650 5950 7650 6050
Connection ~ 7650 6050
Wire Wire Line
	7650 6050 8400 6050
$Comp
L power:GNDPWR #PWR017
U 1 1 5DAB4C25
P 7200 6250
F 0 "#PWR017" H 7200 6000 50  0001 C CNN
F 1 "GNDPWR" H 7450 6200 50  0000 C CNN
F 2 "" H 7200 6250 50  0001 C CNN
F 3 "~" H 7200 6250 50  0001 C CNN
	1    7200 6250
	1    0    0    -1  
$EndComp
$Comp
L power:+3.3V #PWR?
U 1 1 5DE80B80
P 9750 2800
F 0 "#PWR?" H 9750 2650 50  0001 C CNN
F 1 "+3.3V" H 9765 2973 50  0000 C CNN
F 2 "" H 9750 2800 50  0001 C CNN
F 3 "" H 9750 2800 50  0001 C CNN
	1    9750 2800
	1    0    0    -1  
$EndComp
$EndSCHEMATC
