EESchema Schematic File Version 4
EELAYER 30 0
EELAYER END
$Descr A4 11693 8268
encoding utf-8
Sheet 3 5
Title ""
Date ""
Rev ""
Comp ""
Comment1 ""
Comment2 ""
Comment3 ""
Comment4 ""
$EndDescr
$Comp
L power:GND #PWR?
U 1 1 5EA4CC50
P 3600 2400
AR Path="/5EA4CC50" Ref="#PWR?"  Part="1" 
AR Path="/5EA48F5F/5EA4CC50" Ref="#PWR0107"  Part="1" 
F 0 "#PWR0107" H 3600 2150 50  0001 C CNN
F 1 "GND" H 3605 2227 50  0000 C CNN
F 2 "" H 3600 2400 50  0001 C CNN
F 3 "" H 3600 2400 50  0001 C CNN
	1    3600 2400
	1    0    0    -1  
$EndComp
Wire Wire Line
	3700 1650 3000 1650
Wire Wire Line
	3700 1750 3000 1750
Wire Wire Line
	3700 1850 3000 1850
Wire Wire Line
	3700 1950 3000 1950
Wire Wire Line
	3700 2050 3000 2050
Wire Wire Line
	3700 2150 3000 2150
Text Label 3000 1650 0    47   ~ 0
HLT_SWITCH_EXT
Text Label 3000 1750 0    47   ~ 0
BOIL_SWITCH_EXT
Text Label 3000 1850 0    47   ~ 0
PUMP1_SWITCH_EXT
Text Label 3000 1950 0    47   ~ 0
PUMP2_SWITCH_EXT
Text Label 3000 2050 0    47   ~ 0
STIR_SWITCH_EXT
Text Label 3000 2150 0    47   ~ 0
FAN_SWITCH_EXT
Wire Wire Line
	3700 2250 3600 2250
Wire Wire Line
	3600 2250 3600 2400
Wire Wire Line
	3700 3650 3400 3650
Wire Wire Line
	3700 3750 3400 3750
Wire Wire Line
	3700 3850 3400 3850
Wire Wire Line
	3700 3950 3400 3950
Wire Wire Line
	3700 4050 3400 4050
Wire Wire Line
	3700 4150 3400 4150
$Comp
L power:GND #PWR?
U 1 1 5EA4CC6A
P 3600 4450
AR Path="/5EA4CC6A" Ref="#PWR?"  Part="1" 
AR Path="/5EA48F5F/5EA4CC6A" Ref="#PWR0108"  Part="1" 
F 0 "#PWR0108" H 3600 4200 50  0001 C CNN
F 1 "GND" H 3605 4277 50  0000 C CNN
F 2 "" H 3600 4450 50  0001 C CNN
F 3 "" H 3600 4450 50  0001 C CNN
	1    3600 4450
	1    0    0    -1  
$EndComp
Wire Wire Line
	3700 4350 3600 4350
Wire Wire Line
	3600 4350 3600 4450
Wire Wire Line
	3700 3050 3600 3050
Connection ~ 3600 4350
Wire Wire Line
	3700 4250 3400 4250
Wire Wire Line
	3700 2950 3400 2950
Wire Wire Line
	3700 2850 3400 2850
$Comp
L Connector_Generic:Conn_01x10 J?
U 1 1 5EA4CC82
P 3900 3950
AR Path="/5EA4CC82" Ref="J?"  Part="1" 
AR Path="/5EA48F5F/5EA4CC82" Ref="J7"  Part="1" 
F 0 "J7" H 4000 3500 50  0000 C CNN
F 1 "Conn_01x10" H 3980 3851 50  0001 L CNN
F 2 "Connector_PinHeader_2.54mm:PinHeader_1x10_P2.54mm_Horizontal" H 3900 3950 50  0001 C CNN
F 3 "~" H 3900 3950 50  0001 C CNN
	1    3900 3950
	1    0    0    1   
$EndComp
Wire Wire Line
	3600 3050 3600 4350
$Comp
L power:+3.3V #PWR?
U 1 1 5EA4CC8A
P 2650 2950
AR Path="/5EA4CC8A" Ref="#PWR?"  Part="1" 
AR Path="/5EA48F5F/5EA4CC8A" Ref="#PWR0109"  Part="1" 
F 0 "#PWR0109" H 2650 2800 50  0001 C CNN
F 1 "+3.3V" H 2665 3123 50  0000 C CNN
F 2 "" H 2650 2950 50  0001 C CNN
F 3 "" H 2650 2950 50  0001 C CNN
	1    2650 2950
	1    0    0    -1  
$EndComp
Wire Wire Line
	2650 3450 2650 2950
$Comp
L Connector:Screw_Terminal_01x07 J?
U 1 1 5EA4CC9E
P 3900 1950
AR Path="/5EA4CC9E" Ref="J?"  Part="1" 
AR Path="/5EA48F5F/5EA4CC9E" Ref="J4"  Part="1" 
F 0 "J4" H 3980 1946 50  0000 L CNN
F 1 "Screw_Terminal_01x07" H 3980 1901 50  0001 L CNN
F 2 "TerminalBlock_TE-Connectivity:TerminalBlock_TE_282834-7_1x07_P2.54mm_Horizontal" H 3900 1950 50  0001 C CNN
F 3 "~" H 3900 1950 50  0001 C CNN
	1    3900 1950
	1    0    0    -1  
$EndComp
Wire Wire Line
	3700 3550 3400 3550
$Comp
L custom:max6818eap+T U?
U 1 1 5EA4FC5C
P 6300 1950
AR Path="/5EA4FC5C" Ref="U?"  Part="1" 
AR Path="/5EA48F5F/5EA4FC5C" Ref="U1"  Part="1" 
F 0 "U1" H 7400 2337 60  0000 C CNN
F 1 "max6818eap+T" H 7400 2231 60  0000 C CNN
F 2 "custom:21-0056C_20" H 7400 2190 60  0001 C CNN
F 3 "" H 6300 1950 60  0000 C CNN
	1    6300 1950
	1    0    0    -1  
$EndComp
Wire Wire Line
	6300 2050 5500 2050
Wire Wire Line
	6300 2150 5500 2150
Wire Wire Line
	6300 2250 5500 2250
Wire Wire Line
	6300 2350 5500 2350
Wire Wire Line
	6300 2450 5500 2450
Wire Wire Line
	6300 2550 5500 2550
Text Label 5500 2050 0    47   ~ 0
HLT_SWITCH_EXT
Text Label 5500 2150 0    47   ~ 0
BOIL_SWITCH_EXT
Text Label 5500 2250 0    47   ~ 0
PUMP1_SWITCH_EXT
Text Label 5500 2350 0    47   ~ 0
PUMP2_SWITCH_EXT
Text Label 5500 2450 0    47   ~ 0
STIR_SWITCH_EXT
Text Label 5500 2550 0    47   ~ 0
FAN_SWITCH_EXT
Wire Wire Line
	8500 2050 8600 2050
Wire Wire Line
	8500 2150 8600 2150
Wire Wire Line
	8500 2250 8600 2250
Wire Wire Line
	8500 2350 8600 2350
Wire Wire Line
	8500 2450 8600 2450
Wire Wire Line
	8500 2550 8600 2550
$Comp
L Device:C C?
U 1 1 5EA4FC79
P 9600 2300
AR Path="/5EA4FC79" Ref="C?"  Part="1" 
AR Path="/5EA48F5F/5EA4FC79" Ref="C1"  Part="1" 
F 0 "C1" H 9400 2400 50  0000 L CNN
F 1 "100nF" H 9300 2200 50  0000 L CNN
F 2 "Capacitor_SMD:C_0603_1608Metric_Pad1.05x0.95mm_HandSolder" H 9638 2150 50  0001 C CNN
F 3 "~" H 9600 2300 50  0001 C CNN
	1    9600 2300
	1    0    0    -1  
$EndComp
Wire Wire Line
	9600 1950 9600 2150
$Comp
L power:GND #PWR?
U 1 1 5EA4FC80
P 7300 3250
AR Path="/5EA4FC80" Ref="#PWR?"  Part="1" 
AR Path="/5EA48F5F/5EA4FC80" Ref="#PWR0110"  Part="1" 
F 0 "#PWR0110" H 7300 3000 50  0001 C CNN
F 1 "GND" H 7305 3077 50  0000 C CNN
F 2 "" H 7300 3250 50  0001 C CNN
F 3 "" H 7300 3250 50  0001 C CNN
	1    7300 3250
	1    0    0    -1  
$EndComp
Wire Wire Line
	9600 2450 9600 3150
Wire Wire Line
	9600 3150 7300 3150
Wire Wire Line
	7300 3150 7300 3250
Wire Wire Line
	6300 2850 6150 2850
Wire Wire Line
	6150 2850 6150 3150
Wire Wire Line
	6150 3150 7300 3150
Connection ~ 7300 3150
$Comp
L power:+3.3V #PWR?
U 1 1 5EA4FC8D
P 8700 1850
AR Path="/5EA4FC8D" Ref="#PWR?"  Part="1" 
AR Path="/5EA48F5F/5EA4FC8D" Ref="#PWR0111"  Part="1" 
F 0 "#PWR0111" H 8700 1700 50  0001 C CNN
F 1 "+3.3V" H 8715 2023 50  0000 C CNN
F 2 "" H 8700 1850 50  0001 C CNN
F 3 "" H 8700 1850 50  0001 C CNN
	1    8700 1850
	1    0    0    -1  
$EndComp
Wire Wire Line
	8700 1850 8700 1950
Wire Wire Line
	8500 1950 8700 1950
Connection ~ 8700 1950
Wire Wire Line
	8700 1950 9600 1950
Wire Wire Line
	6300 1950 5300 1950
Wire Wire Line
	5300 1950 5300 3150
Wire Wire Line
	5300 3150 6150 3150
Connection ~ 6150 3150
NoConn ~ 6300 2650
NoConn ~ 6300 2750
NoConn ~ 8500 2850
NoConn ~ 8500 2750
NoConn ~ 8500 2650
Text HLabel 8600 2050 2    47   Output ~ 0
HLT_SWITCH
Text HLabel 8600 2150 2    47   Output ~ 0
BOIL_SWITCH
Text HLabel 8600 2250 2    47   Output ~ 0
PUMP1_SWITCH
Text HLabel 8600 2350 2    47   Output ~ 0
PUMP2_SWITCH
Text HLabel 8600 2450 2    47   Output ~ 0
STIR_SWITCH
Text HLabel 8600 2550 2    47   Output ~ 0
FAN_SWITCH
Text HLabel 3400 2950 0    47   Input ~ 0
BOIL_SSR
Text HLabel 3400 2850 0    47   Input ~ 0
HLT_SSR
Wire Wire Line
	3700 3450 2650 3450
Text HLabel 3400 3550 0    47   Input ~ 0
HLT
Text HLabel 3400 3650 0    47   Input ~ 0
BOIL
Text HLabel 3400 3750 0    47   Input ~ 0
PUMP1
Text HLabel 3400 3850 0    47   Input ~ 0
PUMP2
Text HLabel 3400 3950 0    47   Input ~ 0
STIR
Text HLabel 3400 4050 0    47   Input ~ 0
FAN
Text HLabel 3400 4150 0    47   Input ~ 0
ALARM
Text HLabel 3400 4250 0    47   Input ~ 0
TBD
$Comp
L Connector:Screw_Terminal_01x03 J5
U 1 1 5EA4D871
P 3900 2950
F 0 "J5" H 3980 2946 50  0000 L CNN
F 1 "Screw_Terminal_01x03" H 3980 2901 50  0001 L CNN
F 2 "TerminalBlock_TE-Connectivity:TerminalBlock_TE_282834-3_1x03_P2.54mm_Horizontal" H 3900 2950 50  0001 C CNN
F 3 "~" H 3900 2950 50  0001 C CNN
	1    3900 2950
	1    0    0    -1  
$EndComp
$EndSCHEMATC
