EESchema Schematic File Version 4
EELAYER 30 0
EELAYER END
$Descr A4 11693 8268
encoding utf-8
Sheet 1 5
Title ""
Date ""
Rev ""
Comp ""
Comment1 ""
Comment2 ""
Comment3 ""
Comment4 ""
$EndDescr
NoConn ~ 9200 6800
$Sheet
S 3200 4200 2300 1200
U 5EA09FC7
F0 "Temp Controller Interface" 47
F1 "TempControllerInterface.sch" 47
F2 "EOC" O R 5500 4450 47 
F3 "MOSI" I R 5500 4650 47 
F4 "MISO" O R 5500 4750 47 
F5 "SCK" I R 5500 4850 47 
F6 "CS" I R 5500 4950 47 
$EndSheet
$Sheet
S 3250 1500 2250 2250
U 5EA48F5F
F0 "Input/Output" 47
F1 "InputOutput.sch" 47
F2 "HLT_SWITCH" O R 5500 1700 47 
F3 "BOIL_SWITCH" O R 5500 1800 47 
F4 "PUMP1_SWITCH" O R 5500 1900 47 
F5 "PUMP2_SWITCH" O R 5500 2000 47 
F6 "STIR_SWITCH" O R 5500 2100 47 
F7 "FAN_SWITCH" O R 5500 2200 47 
F8 "HLT" I R 5500 2400 47 
F9 "BOIL" I R 5500 2500 47 
F10 "PUMP1" I R 5500 2600 47 
F11 "PUMP2" I R 5500 2700 47 
F12 "STIR" I R 5500 2800 47 
F13 "FAN" I R 5500 2900 47 
F14 "ALARM" I R 5500 3000 47 
F15 "TBD" I R 5500 3100 47 
F16 "HLT_SSR" I R 5500 3300 47 
F17 "BOIL_SSR" I R 5500 3400 47 
$EndSheet
$Sheet
S 1250 1550 1000 700 
U 5EA5EF21
F0 "Power" 47
F1 "Power.sch" 47
$EndSheet
$Sheet
S 8450 1600 1250 2900
U 5EA63D4E
F0 "Raspberry Pi" 47
F1 "RaspberryPi.sch" 47
F2 "GPIO12" B L 8450 2850 47 
F3 "GPIO2_SDA1" B L 8450 2050 47 
F4 "GPIO4_GPCLK0" B L 8450 2150 47 
F5 "GPIO27" B L 8450 4350 47 
F6 "GPIO17" B L 8450 3350 47 
F7 "GPIO22" B L 8450 3850 47 
F8 "GPIO10_MOSI" B L 8450 2650 47 
F9 "GPIO9_MISO" B L 8450 2550 47 
F10 "GPIO11_CLK" I L 8450 2750 47 
F11 "GPIO0_SDA0" B L 8450 1850 47 
F12 "GPIO5" B L 8450 2250 47 
F13 "GPIO13_PWM1" B L 8450 2950 47 
F14 "GPIO19" B L 8450 3550 47 
F15 "GPIO26" B L 8450 4250 47 
F16 "GPIO14_TXD0" B L 8450 3050 47 
F17 "GPIO15_RXD0" B L 8450 3150 47 
F18 "GPIO18_PWM0" B L 8450 3450 47 
F19 "GPIO23" B L 8450 3950 47 
F20 "GPIO24" B L 8450 4050 47 
F21 "GPIO25" B L 8450 4150 47 
F22 "GPIO8_CE0" B L 8450 2450 47 
F23 "GPIO7_CE1" B L 8450 2350 47 
F24 "GPIO1_SCL0" B L 8450 1950 47 
F25 "GPIO16" B L 8450 3250 47 
F26 "GPIO20" B L 8450 3650 47 
F27 "GPIO21" B L 8450 3750 47 
$EndSheet
Text Label 5550 2400 0    47   ~ 0
HLT
Text Label 5550 2500 0    47   ~ 0
BOIL
Text Label 5550 2600 0    47   ~ 0
PUMP1
Text Label 5550 2700 0    47   ~ 0
PUMP2
Text Label 5550 2800 0    47   ~ 0
STIR
Text Label 5550 2900 0    47   ~ 0
FAN
Text Label 5550 3000 0    47   ~ 0
ALARM
Text Label 5550 3100 0    47   ~ 0
TBD
Text Label 8400 4050 2    47   ~ 0
HLT
Text Label 8400 4150 2    47   ~ 0
BOIL
Text Label 8400 2950 2    47   ~ 0
PUMP1
Text Label 8400 3250 2    47   ~ 0
PUMP2
Text Label 8400 3550 2    47   ~ 0
STIR
Text Label 8400 3650 2    47   ~ 0
FAN
Text Label 8400 4250 2    47   ~ 0
ALARM
Text Label 8400 3750 2    47   ~ 0
TBD
Entry Wire Line
	6100 3100 6200 3000
Entry Wire Line
	6100 3000 6200 2900
Entry Wire Line
	6100 2900 6200 2800
Entry Wire Line
	6100 2800 6200 2700
Entry Wire Line
	6100 2700 6200 2600
Entry Wire Line
	6100 2600 6200 2500
Entry Wire Line
	6100 2500 6200 2400
Entry Wire Line
	6100 2400 6200 2300
Wire Wire Line
	6100 2400 5500 2400
Wire Wire Line
	6100 2500 5500 2500
Wire Wire Line
	6100 2600 5500 2600
Wire Wire Line
	6100 2700 5500 2700
Wire Wire Line
	6100 2800 5500 2800
Wire Wire Line
	6100 2900 5500 2900
Wire Wire Line
	6100 3000 5500 3000
Wire Wire Line
	6100 3100 5500 3100
Entry Wire Line
	7500 4100 7600 4200
Entry Wire Line
	7500 4050 7600 4150
Entry Wire Line
	7500 3950 7600 4050
Entry Wire Line
	7500 3600 7600 3700
Entry Wire Line
	7500 3550 7600 3650
Entry Wire Line
	7500 3450 7600 3550
Entry Wire Line
	7500 3100 7600 3200
Entry Wire Line
	7500 2850 7600 2950
Wire Bus Line
	6200 2200 7500 2200
Wire Wire Line
	7600 3650 8450 3650
Wire Wire Line
	7600 3550 8450 3550
Wire Wire Line
	7600 2950 8450 2950
Wire Wire Line
	7600 4150 8450 4150
Wire Wire Line
	7600 4050 8450 4050
Entry Wire Line
	6100 2200 6200 2100
Entry Wire Line
	6100 2100 6200 2000
Entry Wire Line
	6100 2000 6200 1900
Entry Wire Line
	6100 1900 6200 1800
Entry Wire Line
	6100 1800 6200 1700
Entry Wire Line
	6100 1700 6200 1600
Wire Wire Line
	5500 2200 6100 2200
Wire Wire Line
	5500 2100 6100 2100
Wire Wire Line
	5500 2000 6100 2000
Wire Wire Line
	5500 1900 6100 1900
Wire Wire Line
	5500 1800 6100 1800
Wire Wire Line
	5500 1700 6100 1700
Text Label 5550 1700 0    47   ~ 0
HLT_SWITCH
Text Label 5550 1800 0    47   ~ 0
BOIL_SWITCH
Text Label 5550 1900 0    47   ~ 0
PUMP1_SWITCH
Text Label 5550 2000 0    47   ~ 0
PUMP2_SWITCH
Text Label 5550 2100 0    47   ~ 0
STIR_SWITCH
Text Label 5550 2200 0    47   ~ 0
FAN_SWITCH
Text Label 8400 3150 2    47   ~ 0
HLT_SWITCH
Text Label 8400 3450 2    47   ~ 0
BOIL_SWITCH
Text Label 8400 3350 2    47   ~ 0
PUMP1_SWITCH
Text Label 8400 4350 2    47   ~ 0
PUMP2_SWITCH
Text Label 8400 3950 2    47   ~ 0
STIR_SWITCH
Text Label 8400 3850 2    47   ~ 0
FAN_SWITCH
Entry Wire Line
	7700 4250 7800 4350
Entry Wire Line
	7700 3850 7800 3950
Entry Wire Line
	7700 3750 7800 3850
Entry Wire Line
	7700 3350 7800 3450
Entry Wire Line
	7700 3250 7800 3350
Entry Wire Line
	7700 3050 7800 3150
Wire Wire Line
	8450 4350 7800 4350
Wire Wire Line
	8450 3850 7800 3850
Wire Wire Line
	8450 3350 8450 3250
Wire Wire Line
	8450 3350 7800 3350
Wire Bus Line
	6200 1550 7700 1550
Wire Wire Line
	7800 3450 8450 3450
Wire Wire Line
	7800 3950 8450 3950
Wire Wire Line
	7800 3150 8450 3150
Entry Wire Line
	6250 3400 6350 3300
Entry Wire Line
	6250 3300 6350 3200
Wire Wire Line
	5500 3300 6250 3300
Wire Wire Line
	5500 3400 6250 3400
Text Label 5550 3300 0    47   ~ 0
HLT_SSR
Text Label 5550 3400 0    47   ~ 0
BOIL_SSR
Entry Wire Line
	7300 2050 7400 2150
Entry Wire Line
	7300 2900 7400 3000
Wire Wire Line
	8450 2150 7400 2150
Text Label 8400 2150 2    47   ~ 0
HLT_SSR
Text Label 8400 3050 2    47   ~ 0
BOIL_SSR
Wire Bus Line
	6350 1900 7300 1900
Wire Wire Line
	5500 4450 6400 4450
Wire Wire Line
	5500 4650 6400 4650
Wire Wire Line
	5500 4750 6400 4750
Wire Wire Line
	5500 4850 6400 4850
Wire Wire Line
	5500 4950 6400 4950
Wire Wire Line
	8450 2750 7150 2750
Wire Wire Line
	8450 2650 7150 2650
Wire Wire Line
	8450 2550 7150 2550
Wire Wire Line
	8450 2450 7150 2450
Entry Wire Line
	7050 2700 7150 2800
Entry Wire Line
	7050 2650 7150 2750
Entry Wire Line
	7050 2550 7150 2650
Entry Wire Line
	7050 2450 7150 2550
Entry Wire Line
	7050 2350 7150 2450
Entry Wire Line
	6400 4950 6500 4850
Entry Wire Line
	6400 4850 6500 4750
Entry Wire Line
	6400 4750 6500 4650
Entry Wire Line
	6400 4650 6500 4550
Entry Wire Line
	6400 4450 6500 4350
Wire Bus Line
	6500 2300 7050 2300
Wire Wire Line
	7800 3250 8450 3250
Text Label 5550 4450 0    47   ~ 0
EOC
Text Label 5550 4650 0    47   ~ 0
MOSI
Text Label 5550 4750 0    47   ~ 0
MISO
Text Label 5550 4850 0    47   ~ 0
SCK
Text Label 5550 4950 0    47   ~ 0
CS
Text Label 8400 2450 2    47   ~ 0
CS
Text Label 8400 2550 2    47   ~ 0
MISO
Text Label 8400 2650 2    47   ~ 0
MOSI
Text Label 8400 2750 2    47   ~ 0
SCK
Text Label 8400 2850 2    47   ~ 0
EOC
Wire Wire Line
	7600 3200 7800 3200
Wire Wire Line
	7800 3200 7800 3250
Wire Wire Line
	7800 3050 8450 3050
Wire Wire Line
	7800 3050 7800 3000
Wire Wire Line
	7800 3000 7400 3000
Wire Wire Line
	7800 3750 8450 3750
Wire Wire Line
	7800 3750 7800 3700
Wire Wire Line
	7800 3700 7600 3700
Wire Wire Line
	7800 4250 8450 4250
Wire Wire Line
	7800 4250 7800 4200
Wire Wire Line
	7800 4200 7600 4200
Wire Wire Line
	7800 2850 8450 2850
Wire Wire Line
	7800 2850 7800 2800
Wire Wire Line
	7800 2800 7150 2800
Wire Bus Line
	7300 1900 7300 2900
Wire Bus Line
	6350 1900 6350 3300
Wire Bus Line
	6200 1550 6200 2100
Wire Bus Line
	7700 1550 7700 4250
Wire Bus Line
	7050 2300 7050 2700
Wire Bus Line
	6500 2300 6500 4850
Wire Bus Line
	7500 2200 7500 4100
Wire Bus Line
	6200 2200 6200 3000
$EndSCHEMATC
