EESchema Schematic File Version 4
EELAYER 30 0
EELAYER END
$Descr A4 11693 8268
encoding utf-8
Sheet 4 5
Title ""
Date ""
Rev ""
Comp ""
Comment1 ""
Comment2 ""
Comment3 ""
Comment4 ""
$EndDescr
$Comp
L power:+12V #PWR?
U 1 1 5EA60C70
P 5200 2400
AR Path="/5EA60C70" Ref="#PWR?"  Part="1" 
AR Path="/5EA5EF21/5EA60C70" Ref="#PWR0112"  Part="1" 
F 0 "#PWR0112" H 5200 2250 50  0001 C CNN
F 1 "+12V" H 5215 2573 50  0000 C CNN
F 2 "" H 5200 2400 50  0001 C CNN
F 3 "" H 5200 2400 50  0001 C CNN
	1    5200 2400
	1    0    0    -1  
$EndComp
$Comp
L power:GND #PWR?
U 1 1 5EA60C76
P 5700 3000
AR Path="/5EA60C76" Ref="#PWR?"  Part="1" 
AR Path="/5EA5EF21/5EA60C76" Ref="#PWR0113"  Part="1" 
F 0 "#PWR0113" H 5700 2750 50  0001 C CNN
F 1 "GND" H 5705 2827 50  0000 C CNN
F 2 "" H 5700 3000 50  0001 C CNN
F 3 "" H 5700 3000 50  0001 C CNN
	1    5700 3000
	1    0    0    -1  
$EndComp
$Comp
L power:+5V #PWR?
U 1 1 5EA60C7C
P 6400 2400
AR Path="/5EA60C7C" Ref="#PWR?"  Part="1" 
AR Path="/5EA5EF21/5EA60C7C" Ref="#PWR0114"  Part="1" 
F 0 "#PWR0114" H 6400 2250 50  0001 C CNN
F 1 "+5V" H 6415 2573 50  0000 C CNN
F 2 "" H 6400 2400 50  0001 C CNN
F 3 "" H 6400 2400 50  0001 C CNN
	1    6400 2400
	1    0    0    -1  
$EndComp
$Comp
L Connector:Screw_Terminal_01x02 J?
U 1 1 5EA60C82
P 4450 2600
AR Path="/5EA60C82" Ref="J?"  Part="1" 
AR Path="/5EA5EF21/5EA60C82" Ref="J2"  Part="1" 
F 0 "J2" H 4530 2592 50  0000 L CNN
F 1 "Screw_Terminal_01x02" H 4400 2250 50  0001 L CNN
F 2 "TerminalBlock_TE-Connectivity:TerminalBlock_TE_282834-2_1x02_P2.54mm_Horizontal" H 4450 2600 50  0001 C CNN
F 3 "~" H 4450 2600 50  0001 C CNN
	1    4450 2600
	-1   0    0    -1  
$EndComp
Wire Wire Line
	4650 2700 4800 2700
Wire Wire Line
	4650 2600 4800 2600
$Comp
L power:PWR_FLAG #FLG?
U 1 1 5EA60C8A
P 4800 2700
AR Path="/5EA60C8A" Ref="#FLG?"  Part="1" 
AR Path="/5EA5EF21/5EA60C8A" Ref="#FLG0102"  Part="1" 
F 0 "#FLG0102" H 4800 2775 50  0001 C CNN
F 1 "PWR_FLAG" H 4800 2873 50  0000 C CNN
F 2 "" H 4800 2700 50  0001 C CNN
F 3 "~" H 4800 2700 50  0001 C CNN
	1    4800 2700
	-1   0    0    1   
$EndComp
$Comp
L power:PWR_FLAG #FLG?
U 1 1 5EA60C90
P 4800 2600
AR Path="/5EA60C90" Ref="#FLG?"  Part="1" 
AR Path="/5EA5EF21/5EA60C90" Ref="#FLG0103"  Part="1" 
F 0 "#FLG0103" H 4800 2675 50  0001 C CNN
F 1 "PWR_FLAG" H 4800 2773 50  0000 C CNN
F 2 "" H 4800 2600 50  0001 C CNN
F 3 "~" H 4800 2600 50  0001 C CNN
	1    4800 2600
	1    0    0    -1  
$EndComp
$Comp
L custom:XL4015-MODULE PS?
U 1 1 5EA60C96
P 5750 2350
AR Path="/5EA60C96" Ref="PS?"  Part="1" 
AR Path="/5EA5EF21/5EA60C96" Ref="PS1"  Part="1" 
F 0 "PS1" H 5750 2325 50  0000 C CNN
F 1 "XL4015-MODULE" H 5750 2234 50  0000 C CNN
F 2 "custom:XL4015-MODULE" H 5750 2350 50  0001 C CNN
F 3 "" H 5750 2350 50  0001 C CNN
	1    5750 2350
	1    0    0    -1  
$EndComp
Connection ~ 4800 2600
Wire Wire Line
	4800 2600 5200 2600
Wire Wire Line
	5200 2400 5200 2600
Connection ~ 5200 2600
Wire Wire Line
	5200 2600 5400 2600
Wire Wire Line
	5150 2700 5150 2750
Wire Wire Line
	5150 2750 5250 2750
Connection ~ 4800 2700
Wire Wire Line
	4800 2700 5150 2700
Wire Wire Line
	5700 3000 5700 2900
Wire Wire Line
	5250 2900 5250 2750
Connection ~ 5250 2750
Wire Wire Line
	5250 2750 5400 2750
Wire Wire Line
	6100 2750 6300 2750
Wire Wire Line
	6300 2750 6300 2900
Wire Wire Line
	5700 2900 5250 2900
Wire Wire Line
	6300 2900 5700 2900
Connection ~ 5700 2900
Wire Wire Line
	6100 2600 6400 2600
Wire Wire Line
	6400 2600 6400 2400
$EndSCHEMATC
