EESchema Schematic File Version 4
EELAYER 30 0
EELAYER END
$Descr A4 11693 8268
encoding utf-8
Sheet 2 5
Title ""
Date ""
Rev ""
Comp ""
Comment1 ""
Comment2 ""
Comment3 ""
Comment4 ""
$EndDescr
$Comp
L custom:LTC6820IMS-TRPBF U2
U 1 1 5EA0E82A
P 3800 2050
F 0 "U2" H 5000 2437 60  0000 C CNN
F 1 "LTC6820IMS-TRPBF" H 5000 2331 60  0000 C CNN
F 2 "custom:LTC6820IMS-TRPBF" H 5000 2290 60  0001 C CNN
F 3 "" H 3800 2050 60  0000 C CNN
	1    3800 2050
	1    0    0    -1  
$EndComp
$Comp
L Transformer:PT61017PEL TR1
U 1 1 5EA0E830
P 5200 3850
F 0 "TR1" H 4950 4300 50  0000 L CNN
F 1 "PT61017PEL" H 4950 3400 50  0000 L CNN
F 2 "custom:PT61017PEL" H 5200 3350 50  0001 C CNN
F 3 "https://www.bourns.com/docs/Product-Datasheets/PT61017PEL.pdf" H 4500 4200 50  0001 C CNN
	1    5200 3850
	1    0    0    -1  
$EndComp
$Comp
L power:+3.3V #PWR0101
U 1 1 5EA0E836
P 3500 1550
F 0 "#PWR0101" H 3500 1400 50  0001 C CNN
F 1 "+3.3V" H 3515 1723 50  0000 C CNN
F 2 "" H 3500 1550 50  0001 C CNN
F 3 "" H 3500 1550 50  0001 C CNN
	1    3500 1550
	1    0    0    -1  
$EndComp
$Comp
L Device:R R1
U 1 1 5EA0E83C
P 2950 1900
F 0 "R1" H 3020 1946 50  0000 L CNN
F 1 "2K" H 3020 1855 50  0000 L CNN
F 2 "Resistor_SMD:R_0603_1608Metric_Pad1.05x0.95mm_HandSolder" V 2880 1900 50  0001 C CNN
F 3 "~" H 2950 1900 50  0001 C CNN
	1    2950 1900
	1    0    0    -1  
$EndComp
$Comp
L Device:R R2
U 1 1 5EA0E842
P 3200 1900
F 0 "R2" H 3270 1946 50  0000 L CNN
F 1 "2K" H 3270 1855 50  0000 L CNN
F 2 "Resistor_SMD:R_0603_1608Metric_Pad1.05x0.95mm_HandSolder" V 3130 1900 50  0001 C CNN
F 3 "~" H 3200 1900 50  0001 C CNN
	1    3200 1900
	1    0    0    -1  
$EndComp
Wire Wire Line
	3800 2050 3500 2050
Wire Wire Line
	3500 2050 3500 1700
Wire Wire Line
	3200 1850 3200 1750
Wire Wire Line
	3200 1700 3500 1700
Connection ~ 3500 1700
Wire Wire Line
	3500 1700 3500 1550
Wire Wire Line
	2950 1850 2950 1750
Wire Wire Line
	2950 1700 3200 1700
Connection ~ 3200 1700
Wire Wire Line
	3800 2150 3200 2150
Wire Wire Line
	3800 2250 2950 2250
$Comp
L power:GND #PWR0102
U 1 1 5EA0E856
P 3500 3000
F 0 "#PWR0102" H 3500 2750 50  0001 C CNN
F 1 "GND" H 3505 2827 50  0000 C CNN
F 2 "" H 3500 3000 50  0001 C CNN
F 3 "" H 3500 3000 50  0001 C CNN
	1    3500 3000
	1    0    0    -1  
$EndComp
Wire Wire Line
	3800 2650 3500 2650
Wire Wire Line
	3500 2650 3500 2750
Wire Wire Line
	3800 2750 3500 2750
Connection ~ 3500 2750
Wire Wire Line
	3500 2750 3500 2850
$Comp
L Device:C C3
U 1 1 5EA0E861
P 3200 2700
F 0 "C3" H 3000 2800 50  0000 L CNN
F 1 "100nF" H 2900 2600 50  0000 L CNN
F 2 "Capacitor_SMD:C_0603_1608Metric_Pad1.05x0.95mm_HandSolder" H 3238 2550 50  0001 C CNN
F 3 "~" H 3200 2700 50  0001 C CNN
	1    3200 2700
	1    0    0    -1  
$EndComp
Wire Wire Line
	3800 2550 3500 2550
Wire Wire Line
	3500 2050 3500 2550
Connection ~ 3500 2050
Connection ~ 3500 2550
Wire Wire Line
	3500 2550 3200 2550
Wire Wire Line
	3200 2850 3500 2850
Connection ~ 3500 2850
Wire Wire Line
	3500 2850 3500 3000
$Comp
L Device:R R3
U 1 1 5EA0E873
P 6500 1900
F 0 "R3" V 6293 1900 50  0000 C CNN
F 1 "2.8K" V 6384 1900 50  0000 C CNN
F 2 "Capacitor_SMD:C_0603_1608Metric_Pad1.05x0.95mm_HandSolder" V 6430 1900 50  0001 C CNN
F 3 "~" H 6500 1900 50  0001 C CNN
	1    6500 1900
	0    1    1    0   
$EndComp
$Comp
L Device:R R5
U 1 1 5EA0E879
P 6900 1900
F 0 "R5" V 6693 1900 50  0000 C CNN
F 1 "1.21K" V 6784 1900 50  0000 C CNN
F 2 "Capacitor_SMD:C_0603_1608Metric_Pad1.05x0.95mm_HandSolder" V 6830 1900 50  0001 C CNN
F 3 "~" H 6900 1900 50  0001 C CNN
	1    6900 1900
	0    1    1    0   
$EndComp
Wire Wire Line
	6200 2050 6350 2050
Wire Wire Line
	6350 2050 6350 1900
Wire Wire Line
	6200 2250 6350 2250
Wire Wire Line
	7050 2250 7050 1900
Wire Wire Line
	6650 1900 6700 1900
Wire Wire Line
	6200 2150 6700 2150
Wire Wire Line
	6700 2150 6700 1900
Connection ~ 6700 1900
Wire Wire Line
	6700 1900 6750 1900
Wire Wire Line
	6200 2350 6350 2350
Wire Wire Line
	6350 2350 6350 2250
Connection ~ 6350 2250
Wire Wire Line
	6350 2250 7050 2250
$Comp
L Device:R R4
U 1 1 5EA0E88C
P 6800 2700
F 0 "R4" H 6730 2654 50  0000 R CNN
F 1 "120R" H 6730 2745 50  0000 R CNN
F 2 "Capacitor_SMD:C_0603_1608Metric_Pad1.05x0.95mm_HandSolder" V 6730 2700 50  0001 C CNN
F 3 "~" H 6800 2700 50  0001 C CNN
	1    6800 2700
	-1   0    0    1   
$EndComp
Wire Wire Line
	6200 2550 6800 2550
Wire Wire Line
	6800 2550 7100 2550
Connection ~ 6800 2550
Wire Wire Line
	6200 2650 6700 2650
Wire Wire Line
	6700 2650 6700 2850
Wire Wire Line
	6700 2850 6800 2850
Wire Wire Line
	6800 2850 7100 2850
Connection ~ 6800 2850
Text Label 7100 2550 2    50   ~ 0
IP
Text Label 7100 2850 2    50   ~ 0
IM
$Comp
L Device:C C5
U 1 1 5EA0E89C
P 6450 2900
F 0 "C5" H 6250 3000 50  0000 L CNN
F 1 "100nF" H 6150 2800 50  0000 L CNN
F 2 "Capacitor_SMD:C_0603_1608Metric_Pad1.05x0.95mm_HandSolder" H 6488 2750 50  0001 C CNN
F 3 "~" H 6450 2900 50  0001 C CNN
	1    6450 2900
	1    0    0    -1  
$EndComp
Wire Wire Line
	6200 2450 6250 2450
Wire Wire Line
	6250 2450 6250 1700
Wire Wire Line
	6250 1700 3500 1700
Connection ~ 6250 2450
Wire Wire Line
	6450 2450 6450 2750
Wire Wire Line
	6250 2450 6450 2450
Wire Wire Line
	6200 2750 6450 2750
Connection ~ 6450 2750
Wire Wire Line
	6450 3050 3850 3050
Wire Wire Line
	3850 3050 3850 2850
Wire Wire Line
	3850 2850 3500 2850
Wire Wire Line
	6350 2350 6600 2350
Wire Wire Line
	6600 2350 6600 3050
Wire Wire Line
	6600 3050 6450 3050
Connection ~ 6350 2350
Connection ~ 6450 3050
Wire Wire Line
	4800 3550 4400 3550
Wire Wire Line
	4800 3750 4400 3750
Wire Wire Line
	5600 3750 5950 3750
Wire Wire Line
	5600 3550 5950 3550
Wire Wire Line
	5600 3650 6100 3650
Text Label 5950 3550 2    50   ~ 0
IP
Text Label 5950 3750 2    50   ~ 0
IM
Text Label 4400 3550 0    50   ~ 0
IP_EXT
Text Label 4400 3750 0    50   ~ 0
IM_EXT
$Comp
L Device:C C4
U 1 1 5EA0E8BB
P 6100 3800
F 0 "C4" H 6215 3846 50  0000 L CNN
F 1 "27pF" H 6215 3755 50  0000 L CNN
F 2 "Capacitor_SMD:C_0603_1608Metric_Pad1.05x0.95mm_HandSolder" H 6138 3650 50  0001 C CNN
F 3 "~" H 6100 3800 50  0001 C CNN
	1    6100 3800
	1    0    0    -1  
$EndComp
$Comp
L power:GND #PWR0103
U 1 1 5EA0E8C1
P 6100 3950
F 0 "#PWR0103" H 6100 3700 50  0001 C CNN
F 1 "GND" H 6105 3777 50  0000 C CNN
F 2 "" H 6100 3950 50  0001 C CNN
F 3 "" H 6100 3950 50  0001 C CNN
	1    6100 3950
	1    0    0    -1  
$EndComp
NoConn ~ 4800 3950
NoConn ~ 4800 4050
NoConn ~ 4800 4150
NoConn ~ 5600 3950
NoConn ~ 5600 4050
NoConn ~ 5600 4150
NoConn ~ 4800 3650
$Comp
L Connector:RJ45_Shielded J?
U 1 1 5EA11199
P 4550 5550
AR Path="/5EA11199" Ref="J?"  Part="1" 
AR Path="/5EA09FC7/5EA11199" Ref="J3"  Part="1" 
F 0 "J3" H 4607 6217 50  0000 C CNN
F 1 "RJ45_Shielded" H 4607 6126 50  0000 C CNN
F 2 "custom:Wurth-615008140121" V 4550 5575 50  0001 C CNN
F 3 "~" V 4550 5575 50  0001 C CNN
	1    4550 5550
	1    0    0    -1  
$EndComp
$Comp
L power:+12V #PWR?
U 1 1 5EA1119F
P 5700 4950
AR Path="/5EA1119F" Ref="#PWR?"  Part="1" 
AR Path="/5EA09FC7/5EA1119F" Ref="#PWR0104"  Part="1" 
F 0 "#PWR0104" H 5700 4800 50  0001 C CNN
F 1 "+12V" H 5715 5123 50  0000 C CNN
F 2 "" H 5700 4950 50  0001 C CNN
F 3 "" H 5700 4950 50  0001 C CNN
	1    5700 4950
	1    0    0    -1  
$EndComp
$Comp
L power:GND #PWR?
U 1 1 5EA111A5
P 5700 6050
AR Path="/5EA111A5" Ref="#PWR?"  Part="1" 
AR Path="/5EA09FC7/5EA111A5" Ref="#PWR0105"  Part="1" 
F 0 "#PWR0105" H 5700 5800 50  0001 C CNN
F 1 "GND" H 5705 5877 50  0000 C CNN
F 2 "" H 5700 6050 50  0001 C CNN
F 3 "" H 5700 6050 50  0001 C CNN
	1    5700 6050
	1    0    0    -1  
$EndComp
$Comp
L power:GNDPWR #PWR?
U 1 1 5EA111AB
P 4550 6050
AR Path="/5EA111AB" Ref="#PWR?"  Part="1" 
AR Path="/5EA09FC7/5EA111AB" Ref="#PWR0106"  Part="1" 
F 0 "#PWR0106" H 4550 5850 50  0001 C CNN
F 1 "GNDPWR" H 4554 5896 50  0000 C CNN
F 2 "" H 4550 6000 50  0001 C CNN
F 3 "" H 4550 6000 50  0001 C CNN
	1    4550 6050
	1    0    0    -1  
$EndComp
Wire Wire Line
	4950 5150 5050 5150
Wire Wire Line
	5700 5150 5700 4950
Wire Wire Line
	4950 5250 5050 5250
Wire Wire Line
	5050 5250 5050 5150
Connection ~ 5050 5150
Wire Wire Line
	4950 5850 5050 5850
Wire Wire Line
	5700 5850 5700 6050
Wire Wire Line
	4950 5750 5050 5750
Wire Wire Line
	5050 5750 5050 5850
Connection ~ 5050 5850
Wire Wire Line
	5050 5850 5700 5850
Wire Wire Line
	4950 5450 5300 5450
Wire Wire Line
	4950 5550 5300 5550
Text Label 5300 5450 2    50   ~ 0
IP_EXT
Text Label 5300 5550 2    50   ~ 0
IM_EXT
NoConn ~ 4950 5650
Wire Wire Line
	5050 5150 5700 5150
$Comp
L power:PWR_FLAG #FLG?
U 1 1 5EA111C4
P 4550 6050
AR Path="/5EA111C4" Ref="#FLG?"  Part="1" 
AR Path="/5EA09FC7/5EA111C4" Ref="#FLG0101"  Part="1" 
F 0 "#FLG0101" H 4550 6125 50  0001 C CNN
F 1 "PWR_FLAG" V 4550 6178 50  0000 L CNN
F 2 "" H 4550 6050 50  0001 C CNN
F 3 "~" H 4550 6050 50  0001 C CNN
	1    4550 6050
	0    1    1    0   
$EndComp
Connection ~ 4550 6050
Wire Wire Line
	4950 5350 5400 5350
Text HLabel 5400 5350 2    47   Output ~ 0
EOC
Connection ~ 3200 1750
Wire Wire Line
	3200 1750 3200 1700
Connection ~ 2950 1750
Wire Wire Line
	2950 1750 2950 1700
Wire Wire Line
	3200 2150 3200 2050
Wire Wire Line
	2950 2050 2950 2250
Wire Wire Line
	3200 2150 2650 2150
Connection ~ 3200 2150
Wire Wire Line
	2950 2250 2650 2250
Connection ~ 2950 2250
Text HLabel 2650 2150 0    47   Input ~ 0
MOSI
Text HLabel 2650 2250 0    47   Output ~ 0
MISO
Wire Wire Line
	2650 2350 3800 2350
Wire Wire Line
	2650 2450 3800 2450
Text HLabel 2650 2350 0    47   Input ~ 0
SCK
Text HLabel 2650 2450 0    47   Input ~ 0
CS
$EndSCHEMATC
